Place,Name,Country,BodyweightKg,Deadlift1Kg,Deadlift2Kg,Deadlift3Kg,Deadlift4Kg,TotalKg,WeightClassKg,Division,Sex,Event,Equipment,Bench1Kg,Bench2Kg,Bench3Kg,Bench4Kg,Best3BenchKg,Best3DeadliftKg,BirthYear
1,Krystian Zawadzki,Poland,54.9,90,100,110,,110,56,Amateur Teen 13-15,M,D,Raw,,,,,,110,2000
1,Filip Tomaszczuk,Poland,75.9,150,170,-180,,170,82.5,Amateur Teen 13-15,M,D,Raw,,,,,,170,2000
1,Norbert Simiński,Poland,70,150,160,170,,170,75,Amateur Teen 16-17,M,D,Raw,,,,,,170,1999
1,Dorian Witosław,Poland,81.9,-190,200,-210,,200,82.5,Amateur Teen 16-17,M,D,Raw,,,,,,200,1998
2,Patryk Kwiatkowski,Poland,76.6,180,-190,-190,,180,82.5,Amateur Teen 16-17,M,D,Raw,,,,,,180,1998
1,Piotr Kobita,Poland,97,150,170,190,,190,100,Amateur Teen 16-17,M,D,Raw,,,,,,190,1999
1,Jakub Bach,Poland,110,180,200,210,,210,110,Amateur Teen 16-17,M,D,Raw,,,,,,210,1999
1,Dariusz Wybraniak,Poland,72.3,190,200,-205,,200,75,Amateur Teen 18-19,M,D,Raw,,,,,,200,1997
1,Yevhen Tsybulko,Ukraine,82.5,-170,170,180,,180,82.5,Amateur Teen 18-19,M,D,Raw,,,,,,180,1997
1,Michał Piotrkowski,Poland,59,180,-185,-185,,180,60,Amateur Juniors 20-23,M,D,Raw,,,,,,180,1992
1,Damian Kupiec,Poland,88.2,235,250,-257.5,,250,90,Amateur Juniors 20-23,M,D,Raw,,,,,,250,1992
2,Oleh Derliuk,Ukraine,83.5,230,245,-250,,245,90,Amateur Juniors 20-23,M,D,Raw,,,,,,245,1992
1,Ryszard Zarotyński,Poland,98.6,230,240,-245,,240,100,Amateur Juniors 20-23,M,D,Raw,,,,,,240,1994
2,Valeriy Zhakovskiy,Ukraine,94,220,235,-250,,235,100,Amateur Juniors 20-23,M,D,Raw,,,,,,235,1993
1,Serhii Haidrykh,Ukraine,105.5,270,-285,-285,,270,110,Amateur Juniors 20-23,M,D,Raw,,,,,,270,1993
2,Nazar Miroshnychenko,Ukraine,104.3,220,-235,-235,,220,110,Amateur Juniors 20-23,M,D,Raw,,,,,,220,1994
1,Mateusz Skrzat,Poland,122,215,225,232.5,,232.5,125,Amateur Juniors 20-23,M,D,Raw,,,,,,232.5,1992
1,Daniel Jansson,Sweden,128,280,-300,-300,,280,140,Amateur Juniors 20-23,M,D,Raw,,,,,,280,1993
1,Artur Giczan,Poland,74.8,235,250,260,-270.5,260,75,Amateur Open,M,D,Raw,,,,,,260,1988
2,Maksym Tokmakov,Ukraine,72,180,190,200,,200,75,Amateur Open,M,D,Raw,,,,,,200,1985
1,Francesco LoPorto,Italy,78.2,240,255,262.5,270,262.5,82.5,Amateur Open,M,D,Raw,,,,,,262.5,1980
2,Józef Bejgrowicz,Poland,81.5,220,240,-250,,240,82.5,Amateur Open,M,D,Raw,,,,,,240,1952
1,Grzegosz Szklarz,Poland,128.6,270,290,305,,305,140,Amateur Open,M,D,Raw,,,,,,305,1989
2,Marek Makarewicz,Poland,126,260,280,-300,,280,140,Amateur Open,M,D,Raw,,,,,,280,1979
1,Robert Sprutta,Poland,150,300,320,330,,330,140+,Amateur Open,M,D,Raw,,,,,,330,1988
1,Francesco LoPorto,Italy,78.2,240,255,262.5,270,262.5,82.5,Amateur Submasters 33-39,M,D,Raw,,,,,,262.5,1980
1,Marek Makarewicz,Poland,126,260,280,-300,,280,140,Amateur Submasters 33-39,M,D,Raw,,,,,,280,1979
1,Dmytro Mazur,Ukraine,66.5,167.5,175,180,,180,67.5,Amateur Masters 40-44,M,D,Raw,,,,,,180,1972
1,Konrad Troll,Poland,72.2,150,160,170,,170,75,Amateur Masters 40-44,M,D,Raw,,,,,,170,1972
1,Przemysław Kozioł,Poland,97,210,227.5,232.5,,232.5,100,Amateur Masters 40-44,M,D,Raw,,,,,,232.5,1973
1,Rafał Klauz,Poland,103.3,190,210,-230,,210,110,Amateur Masters 40-44,M,D,Raw,,,,,,210,1971
1,Zbigniew Pajęcki,Poland,61.9,140,-150,150,,150,67.5,Amateur Masters 50-54,M,D,Raw,,,,,,150,1964
1,Antoni Kaliński,Poland,67.2,135,145,-150,,145,67.5,Amateur Masters 60-64,M,D,Raw,,,,,,145,1953
1,Józef Bejgrowicz,Poland,81.5,220,240,-250,,240,82.5,Amateur Masters 60-64,M,D,Raw,,,,,,240,1952
1,Kazimierz Jasiński,Poland,82.1,160,170,180,,180,82.5,Amateur Masters 65-69,M,D,Raw,,,,,,180,1947
1,Jan Łuka,Poland,87.1,235,240,-245,,240,90,Amateur Masters 65-69,M,D,Raw,,,,,,240,1949
2,Stefan Sochański,Poland,88.5,200,230,-242.5,,230,90,Amateur Masters 65-69,M,D,Raw,,,,,,230,1948
1,Gabriela Gacek,Poland,60.5,100,110,120,,120,67.5,Amateur Teen 16-17,F,D,Raw,,,,,,120,1998
1,Małgorzata Piszczek,Poland,70,115,120,125,,125,75,Amateur Teen 18-19,F,D,Raw,,,,,,125,1996
1,Renata Zapała,Poland,72,120,130,-137.5,,130,75,Amateur Juniors 20-23,F,D,Raw,,,,,,130,1994
1,Bettina Razzouki-Korkis,Poland,52,95,105,110.5,,110.5,52,Amateur Open,F,D,Raw,,,,,,110.5,1965
2,Olga Yarmolyuk,Ukraine,52,-105,-105,105,,105,52,Amateur Open,F,D,Raw,,,,,,105,1989
1,Bernadetta Styrczula,Poland,63,120,-130,-130,,120,67.5,Amateur Open,F,D,Raw,,,,,,120,1982
1,Bettina Razzouki-Korkis,Poland,52,95,105,110.5,,110.5,52,Amateur Masters 50-54,F,D,Raw,,,,,,110.5,1965
DQ,Kacper Sopata,Poland,79,-225,-225,-225,,,82.5,Pro Teen 18-19,M,D,Raw,,,,,,,1996
1,Mateusz Kacperski,Poland,100,190,-205,-215,,190,100,Pro Teen 18-19,M,D,Raw,,,,,,190,1997
1,Mateusz Kaczmarek,Poland,65.5,150,170,180,,180,67.5,Pro Juniors 20-23,M,D,Raw,,,,,,180,1993
1,Mateusz Pawlikowski,Poland,137.2,260,280,-300,,280,140,Pro Juniors 20-23,M,D,Raw,,,,,,280,1992
1,Irakli Gachava,Georgia,175,-280,280,300,,300,140+,Pro Juniors 20-23,M,D,Raw,,,,,,300,1992
1,Tomasz Miloch,Poland,73.8,-200,-200,200,,200,75,Pro Open,M,D,Raw,,,,,,200,1983
1,Zbigniew Boczar,Poland,81,-100,100,150,,150,82.5,Pro Open,M,D,Raw,,,,,,150,1985
1,Jozef Sokolowski,Poland,97.4,260,280,300,,300,100,Pro Open,M,D,Raw,,,,,,300,1955
2,Marcin Kuklis,Poland,95.9,240,245,-247.5,,245,100,Pro Open,M,D,Raw,,,,,,245,1982
3,Dominik Flinik,Poland,99.6,180,200,225,,225,100,Pro Open,M,D,Raw,,,,,,225,1986
1,Grzegorz Skowroński,Poland,109.2,290,310,-320,,310,110,Pro Open,M,D,Raw,,,,,,310,1985
2,Rafał Wójcik,Poland,109.5,280,290,-300,,290,110,Pro Open,M,D,Raw,,,,,,290,1987
1,Damian Sieradzki,Poland,114.9,240,270,290,,290,125,Pro Open,M,D,Raw,,,,,,290,1989
2,Kamil Koczwara,Poland,118.7,270,285,-292.5,,285,125,Pro Open,M,D,Raw,,,,,,285,1988
3,Maciej Stępniak,Poland,114.2,275,-290,-290,,275,125,Pro Open,M,D,Raw,,,,,,275,1991
1,Vasilij Mazur,Moldowa,131.2,300,320,330,-337.5,330,140,Pro Open,M,D,Raw,,,,,,330,1984
2,Piotr Czapiewski,Poland,126.5,300,315,325,,325,140,Pro Open,M,D,Raw,,,,,,325,1975
3,Mateusz Pawlikowski,Poland,137.2,260,280,-300,,280,140,Pro Open,M,D,Raw,,,,,,280,1992
1,Robert Rapacz,Poland,143.5,280,-300,-300,,280,140+,Pro Open,M,D,Raw,,,,,,280,1982
1,Marcin Kuklis,Poland,95.9,240,245,-247.5,,245,100,Pro Submasters 33-39,M,D,Raw,,,,,,245,1982
1,Endre Jankó,Hungary,110,240,250,-260,,250,110,Pro Masters 40-44,M,D,Raw,,,,,,250,1971
1,Piotr Czapiewski,Poland,126.5,300,315,325,,325,140,Pro Masters 40-44,M,D,Raw,,,,,,325,1975
1,Vitaliy Beloborodov,Moldowa,110.2,-250,250,260,,260,125,Pro Masters 45-49,M,D,Raw,,,,,,260,1968
1,Robert Nemś,Poland,130,300,315,327.5,,327.5,140,Pro Masters 45-49,M,D,Raw,,,,,,327.5,1969
1,Marian Knuth,Poland,97,220,230,235,,235,100,Pro Masters 55-59,M,D,Raw,,,,,,235,1958
1,Jozef Sokolowski,Poland,97.4,260,280,300,,300,100,Pro Masters 60-64,M,D,Raw,,,,,,300,1955
1,Zbigniew Boczar,Poland,81,-100,100,150,,150,82.5,Pro Military/Fire/Police,M,D,Raw,,,,,,150,1985
1,Dominik Flinik,Poland,99.6,180,200,225,,225,100,Pro Military/Fire/Police,M,D,Raw,,,,,,225,1986
1,Olena Shcherbinina,Ukraine,65,100,105,110,,110,67.5,Pro Open,F,D,Raw,,,,,,110,1982
1,Sara Błońska,Poland,72.5,125,-130,-130,,125,75,Pro Open,F,D,Raw,,,,,,125,1985
1,Olena Shcherbinina,Ukraine,65,100,105,110,,110,67.5,Pro Submasters 33-39,F,D,Raw,,,,,,110,1982
1,Mariusz Snarski,Poland,96.9,240,260,270,,270,100,Amateur Open,M,D,Multi-ply,,,,,,270,1984
1,Stefan Sochański,Poland,88.5,225,-247.5,247.5,,247.5,90,Amateur Masters 65-69,M,D,Multi-ply,,,,,,247.5,1948
1,Tomasz Miloch,Poland,73.8,220,250,260,,260,75,Pro Open,M,D,Multi-ply,,,,,,260,1983
1,Niclas Friberg,Sweden,97,-270,270,280,,280,100,Pro Masters 40-44,M,D,Multi-ply,,,,,,280,1974
DQ,Mats Eriksson,Sweden,89.2,-240,-240,-240,,,90,Pro Masters 50-54,M,D,Multi-ply,,,,,,,1961
1,Marian Knuth,Poland,97,220,225,-230,,225,100,Pro Masters 55-59,M,D,Multi-ply,,,,,,225,1958
1,Kacper Matuszewski,Poland,48.4,,,,,45,52,Amateur Teen 13-15,M,B,Raw,37.5,40,45,,45,,2001
1,Igor Starchenko,Ukraine,74,,,,,87.5,75,Amateur Teen 13-15,M,B,Raw,80,85,87.5,,87.5,,2001
1,Hubert Raba,Poland,64,,,,,100,67.5,Amateur Teen 16-17,M,B,Raw,95,100,-105,,100,,1999
1,Krzysztof Szyszko,Poland,73.5,,,,,125,75,Amateur Teen 16-17,M,B,Raw,110,120,125,,125,,1999
2,Michal Stasiak,Poland,72.4,,,,,115,75,Amateur Teen 16-17,M,B,Raw,105,115,-117.5,,115,,1998
1,Pavlo Pidtoptaniy,Ukraine,72,,,,,130,75,Amateur Teen 18-19,M,B,Raw,120,127.5,130,,130,,1997
2,Dariusz Wybraniak,Poland,72.3,,,,,95,75,Amateur Teen 18-19,M,B,Raw,95,-105,-105,,95,,1997
1,Gieworg Badalian,Germany,81,,,,,120,82.5,Amateur Teen 18-19,M,B,Raw,110,120,-125,,120,,1997
2,Yevhen Tsybulko,Ukraine,82.5,,,,,107.5,82.5,Amateur Teen 18-19,M,B,Raw,95,102.5,107.5,,107.5,,1997
1,Łukasz Gajdulewicz,Poland,96.3,,,,,167.5,100,Amateur Teen 18-19,M,B,Raw,-167.5,167.5,-170,,167.5,,1997
1,Bartosz Szaran,Poland,101,,,,,135,110,Amateur Teen 18-19,M,B,Raw,120,130,135,,135,,1997
1,Michał Musiałkowski,Poland,53,,,,,55,56,Amateur Juniors 20-23,M,B,Raw,45,50,55,,55,,1993
1,Michał Piotrkowski,Poland,59,,,,,125,60,Amateur Juniors 20-23,M,B,Raw,125,-130,-130,,125,,1992
1,Marcin Dulko,Poland,73.1,,,,,160,75,Amateur Juniors 20-23,M,B,Raw,147.5,155,160,,160,,1993
2,Kamil Szaramowicz,Poland,71.3,,,,,125,75,Amateur Juniors 20-23,M,B,Raw,122.5,125,-127.5,,125,,1994
3,Piotr Adamczyk,Poland,74.5,,,,,117.5,75,Amateur Juniors 20-23,M,B,Raw,115,117.5,-120,,117.5,,1993
1,Patryk Kaczmarek,Poland,82,,,,,117.5,82.5,Amateur Juniors 20-23,M,B,Raw,115,117.5,-120,,117.5,,1995
DQ,Volodymyr Nazarko,Ukraine,85.5,,,,,,90,Amateur Juniors 20-23,M,B,Raw,-145,-145,-145,,,,1993
1,Sviatoslav Boichuk,Ukraine,100,,,,,190,100,Amateur Juniors 20-23,M,B,Raw,180,190,-200,,190,,1992
2,Spartak Dolenjashvili,Georgia,97,,,,,170,100,Amateur Juniors 20-23,M,B,Raw,-160,160,170,,170,,1995
1,Nazar Miroshnychenko,Ukraine,104.3,,,,,140,110,Amateur Juniors 20-23,M,B,Raw,140,-150,-150,,140,,1994
1,Mateusz Skrzat,Poland,122,,,,,172.5,125,Amateur Juniors 20-23,M,B,Raw,160,167.5,172.5,,172.5,,1992
1,Dmytro Kotovych,Ukraine,60,,,,,105,60,Amateur Open,M,B,Raw,-105,105,-112.5,,105,,1989
1,Daniel Nowak,Poland,66,,,,,90,67.5,Amateur Open,M,B,Raw,90,-100,-100,,90,,1991
1,Rostyslav Kudybyn,Ukraine,74,,,,,162.5,75,Amateur Open,M,B,Raw,150,162.5,-170,,162.5,,1991
2,Marcin Dulko,Poland,73.1,,,,,160,75,Amateur Open,M,B,Raw,147.5,155,160,,160,,1993
3,Wiesław Kiwacki,Poland,74.2,,,,,150,75,Amateur Open,M,B,Raw,135,145,150,,150,,1976
4,Pavlo Pidtoptaniy,Ukraine,72,,,,,130,75,Amateur Open,M,B,Raw,120,127.5,130,,130,,1997
1,Radosław Brzoza,Poland,82.5,,,,,150,82.5,Amateur Open,M,B,Raw,140,150,-155,,150,,1986
2,Łukasz Aftka,Poland,82,,,,,132.5,82.5,Amateur Open,M,B,Raw,115,125,132.5,,132.5,,1984
1,Maciej Ondycz,Poland,98.8,,,,,215,100,Amateur Open,M,B,Raw,200,210,215,,215,,1980
2,Krzysztof Słupczewski,Poland,94.5,,,,,142.5,100,Amateur Open,M,B,Raw,135,142.5,-150,,142.5,,1989
1,Andrii Mazanovych,Ukraine,103,,,,,190,110,Amateur Open,M,B,Raw,175,185,190,,190,,1987
1,Marek Makarewicz,Poland,126,,,,,210,140,Amateur Open,M,B,Raw,200,210,-215,,210,,1979
2,Krzystof Halczyk,Poland,132.2,,,,,182.5,140,Amateur Open,M,B,Raw,175,182.5,-187.5,,182.5,,1974
1,Michael Andersson,Sweden,148.2,,,,,190,140+,Amateur Open,M,B,Raw,180,190,-202.5,,190,,1967
1,Bartosz Słodek,Poland,66.1,,,,,105,67.5,Amateur Submasters 33-39,M,B,Raw,100,105,-110,,105,,1977
1,Wiesław Kiwacki,Poland,74.2,,,,,150,75,Amateur Submasters 33-39,M,B,Raw,135,145,150,,150,,1976
2,Artur Czempiel,Poland,74.6,,,,,130,75,Amateur Submasters 33-39,M,B,Raw,120,125,130,,130,,1980
1,Krzystof Klimaszewski,Poland,82.4,,,,,160,82.5,Amateur Submasters 33-39,M,B,Raw,140,147.5,160,,160,,1976
1,Andrzej Juraszek,Poland,89.7,,,,,170,90,Amateur Submasters 33-39,M,B,Raw,-165,165,170,,170,,1977
2,Daniel Sobolewski,Poland,88.1,,,,,150,90,Amateur Submasters 33-39,M,B,Raw,150,-155,-155,,150,,1981
1,Maciej Ondycz,Poland,98.8,,,,,215,100,Amateur Submasters 33-39,M,B,Raw,200,210,215,,215,,1980
DQ,Sławomir Jasica,Poland,92.8,,,,,,100,Amateur Submasters 33-39,M,B,Raw,-175,-175,-175,,,,1977
1,Marek Makarewicz,Poland,126,,,,,210,140,Amateur Submasters 33-39,M,B,Raw,200,210,-215,,210,,1979
1,Michał Kijański,Poland,88.5,,,,,155,90,Amateur Masters 40-44,M,B,Raw,145,155,-160,,155,,1972
1,Tomasz Prętkiewicz,Poland,107.5,,,,,142.5,110,Amateur Masters 40-44,M,B,Raw,130,140,142.5,,142.5,,1973
1,Olaf Engler,Poland,110.75,,,,,137.5,125,Amateur Masters 40-44,M,B,Raw,130,137.5,-140,,137.5,,1971
1,Krzystof Halczyk,Poland,132.2,,,,,182.5,140,Amateur Masters 40-44,M,B,Raw,175,182.5,-187.5,,182.5,,1974
1,Grzegorz Kantor,Poland,140.2,,,,,185,140+,Amateur Masters 40-44,M,B,Raw,180,185,-187.5,,185,,1972
1,Michael Andersson,Sweden,148.2,,,,,190,140+,Amateur Masters 45-49,M,B,Raw,180,190,-202.5,,190,,1967
1,Zbigniew Pajęcki,Poland,61.9,,,,,75,67.5,Amateur Masters 50-54,M,B,Raw,70,75,-77.5,,75,,1964
1,Mirosław Urbaniak,Poland,80.5,,,,,120,82.5,Amateur Masters 50-54,M,B,Raw,-120,120,-130,,120,,1961
1,Mykola Tarnavskyi,Ukraine,87,,,,,165,90,Amateur Masters 50-54,M,B,Raw,160,165,-170,,165,,1962
1,Zdisław Leśniewski,Poland,81.5,,,,,90,82.5,Amateur Masters 55-59,M,B,Raw,85,90,-92.5,,90,,1959
1,Grzegorz Gapiński,Poland,87.7,,,,,175,90,Amateur Masters 55-59,M,B,Raw,165,170,175,,175,,1958
1,Zbigniew Koper,Poland,76.7,,,,,95,82.5,Amateur Masters 60-64,M,B,Raw,85,-90,95,,95,,1953
1,Wojciech Nitecki,Poland,108.3,,,,,145,110,Amateur Masters 60-64,M,B,Raw,140,145,-147.5,,145,,1955
1,Kazimierz Tamiłowski,Poland,79.5,,,,,130,82.5,Amateur Masters 65-69,M,B,Raw,125,130,-135,,130,,1948
2,Kazimierz Jasiński,Poland,82.1,,,,,92.5,82.5,Amateur Masters 65-69,M,B,Raw,80,90,92.5,,92.5,,1947
1,Sylwester Kubacki,Poland,80.7,,,,,82.5,82.5,Amateur Masters 70-74,M,B,Raw,77.5,80,82.5,,82.5,,1944
1,Agata Imianowska,Poland,55.8,,,,,60,56,Amateur Teen 16-17,F,B,Raw,55,60,-65,,60,,1998
1,Weronika Mikolajczyk,Poland,75.1,,,,,47.5,82.5,Amateur Teen 16-17,F,B,Raw,45,47.5,-51,,47.5,,1998
1,Monika Rutkowska,Poland,58,,,,,45,60,Amateur Teen 18-19,F,B,Raw,42.5,45,-50,-50,45,,1997
1,Bettina Razzouki-Korkis,Poland,52,,,,,62.5,52,Amateur Open,F,B,Raw,57.5,62.5,-65.5,,62.5,,1965
1,Olga Dombrovska,Ukraine,54,,,,,77.5,56,Amateur Open,F,B,Raw,70,75,77.5,,77.5,,1983
1,Tetiana Shavidze,Ukraine,66.5,,,,,77.5,67.5,Amateur Open,F,B,Raw,77.5,-80,-82.5,,77.5,,1977
1,Marzena Janzer,Poland,77.5,,,,,90,82.5,Amateur Open,F,B,Raw,80,85,90,,90,,1974
1,Tetiana Shavidze,Ukraine,66.5,,,,,77.5,67.5,Amateur Submasters 33-39,F,B,Raw,77.5,-80,-82.5,,77.5,,1977
1,Marzena Janzer,Poland,77.5,,,,,90,82.5,Amateur Masters 40-44,F,B,Raw,80,85,90,,90,,1974
1,Bettina Razzouki-Korkis,Poland,52,,,,,62.5,52,Amateur Masters 50-54,F,B,Raw,57.5,62.5,-65.5,,62.5,,1965
1,Mateusz Czarnecki,Poland,81.5,,,,,152,82.5,Pro Teen 16-17,M,B,Raw,135,145,152,,152,,1998
1,Mateusz Gorzedowski,Poland,96.5,,,,,170,100,Pro Teen 16-17,M,B,Raw,157.5,165,170,-175,170,,1998
1,Konrad Leśniewski,Poland,101,,,,,125,110,Pro Teen 16-17,M,B,Raw,115,120,125,-130,125,,1998
1,Sebastian Filipiak,Poland,115.4,,,,,105,125,Pro Teen 16-17,M,B,Raw,100,105,-110,,105,,1998
1,Adam Kopka,Poland,126,,,,,110,140,Pro Teen 16-17,M,B,Raw,110,-115,-115,,110,,1998
1,László György,Hungary,52.8,,,,,115,56,Pro Teen 18-19,M,B,Raw,105,110,115,-125,115,,1997
1,Adrian Bizior,Poland,57.8,,,,,95,60,Pro Teen 18-19,M,B,Raw,90,95,-100,,95,,1997
1,Dawid Słupczewski,Poland,74.6,,,,,145,75,Pro Teen 18-19,M,B,Raw,-145,-145,145,-151,145,,1997
1,Maksymilian Blinkiewicz,Poland,84.5,,,,,190,90,Pro Teen 18-19,M,B,Raw,177.5,185,190,,190,,1996
1,Mateusz Kacperski,Poland,100,,,,,120,100,Pro Teen 18-19,M,B,Raw,110,120,-130,,120,,1997
1,Marcin Sokołowski,Poland,120,,,,,168,125,Pro Teen 18-19,M,B,Raw,155,162.5,168,172,168,,1997
1,Michał Rogalski,Poland,55.2,,,,,80,56,Pro Juniors 20-23,M,B,Raw,-80,80,-90,,80,,1995
1,Mateusz Kaczmarek,Poland,65.5,,,,,115,67.5,Pro Juniors 20-23,M,B,Raw,115,-120,-120,,115,,1993
1,Mateusz Gajewicz,Poland,81.9,,,,,195,82.5,Pro Juniors 20-23,M,B,Raw,185,195,-200,,195,,1993
2,Jaroslaw Buczko,Poland,81.9,,,,,190,82.5,Pro Juniors 20-23,M,B,Raw,185,190,-197.5,,190,,1992
1,Michał Potocki,Poland,86,,,,,150,90,Pro Juniors 20-23,M,B,Raw,140,150,-155,,150,,1993
1,Dawid Anchimowicz,Poland,99.8,,,,,150,100,Pro Juniors 20-23,M,B,Raw,140,150,-155,,150,,1993
1,Dariusz Lis,Poland,102.8,,,,,180,110,Pro Juniors 20-23,M,B,Raw,180,-187.5,-187.5,,180,,1993
1,Michał Moryson,Poland,117.6,,,,,170,125,Pro Juniors 20-23,M,B,Raw,160,170,-175,,170,,1992
1,Mateusz Pawlikowski,Poland,137.2,,,,,190,140,Pro Juniors 20-23,M,B,Raw,190,-200,-200,,190,,1992
1,Irakli Gachava,Georgia,175,,,,,200,140+,Pro Juniors 20-23,M,B,Raw,180,200,-210,,200,,1992
1,Oleksandr Zhariy,Ukraine,59.9,,,,,122.5,60,Pro Open,M,B,Raw,122.5,-127.5,-127.5,,122.5,,1972
1,Dominik Skrzyński,Poland,66.8,,,,,180,67.5,Pro Open,M,B,Raw,-180,180,-185.5,,180,,1975
2,Tomasz Chrzanowski,Poland,66.3,,,,,160,67.5,Pro Open,M,B,Raw,145,152.5,160,,160,,1980
1,Marcin Garbas,Poland,73.8,,,,,180,75,Pro Open,M,B,Raw,175,180,-185,,180,,1985
2,Radoslaw Rosiak,Great Britain,72.3,,,,,125,75,Pro Open,M,B,Raw,125,-130,-130,,125,,1980
1,Robert Wrzawinski,Poland,81.8,,,,,207.5,82.5,Pro Open,M,B,Raw,200,207.5,-212.5,,207.5,,1982
2,Mateusz Pawelak,Poland,80.7,,,,,200,82.5,Pro Open,M,B,Raw,-200,200,-210,,200,,1990
3,Jaroslaw Fabiszewski,Poland,81.5,,,,,190,82.5,Pro Open,M,B,Raw,175,185,190,,190,,1989
4,Dmitrii Kukharenko,Spain,80,,,,,177.5,82.5,Pro Open,M,B,Raw,172.5,-177.5,177.5,,177.5,,1969
5,Zbigniew Boczar,Poland,81.35,,,,,165,82.5,Pro Open,M,B,Raw,160,165,-170,,165,,1985
6,Krzystof Wachowiak,Poland,79.6,,,,,150,82.5,Pro Open,M,B,Raw,137.5,142.5,150,,150,,1988
1,Paweł Tyborczyk,Poland,89.3,,,,,210,90,Pro Open,M,B,Raw,-210,210,-215,,210,,1979
2,Piotr Balcerek,Poland,89.3,,,,,207.5,90,Pro Open,M,B,Raw,200,207.5,-210,,207.5,,1979
3,Volodymyr Galyga,Ukraine,89.4,,,,,190,90,Pro Open,M,B,Raw,190,-195,-195,,190,,1983
4,Tadeusz Janiak,Poland,86,,,,,165,90,Pro Open,M,B,Raw,160,165,-167.5,,165,,1962
1,Aleksandr Scherbakov,Moldowa,91.7,,,,,230,100,Pro Open,M,B,Raw,220,230,-235,,230,,1966
2,Andrzej Kocyła,Poland,100,,,,,222.5,100,Pro Open,M,B,Raw,210,222.5,-230,,222.5,,1976
3,Roman Tsauk,Ukraine,94,,,,,215,100,Pro Open,M,B,Raw,215,-230,-230,,215,,1983
4,Hovhannes Yazichyan,Poland,93.8,,,,,205,100,Pro Open,M,B,Raw,205,-210,-210,,205,,1971
5,Dominik Flinik,Poland,99.6,,,,,195,100,Pro Open,M,B,Raw,195,-200,-200,,195,,1986
6,Krzystof Janaszkiewicz,Poland,99,,,,,172.5,100,Pro Open,M,B,Raw,160,165,172.5,,172.5,,1983
7,Przemysław Dobrowolski,Poland,93,,,,,165,100,Pro Open,M,B,Raw,-150,150,165,,165,,1986
8,Oleksandr Klokov,Ukraine,97,,,,,150,100,Pro Open,M,B,Raw,150,-160,-160,,150,,1997
1,Paweł Liszcz,Poland,106.75,,,,,232.5,110,Pro Open,M,B,Raw,220,230,232.5,,232.5,,1978
2,Rafal Gomula,Poland,103.8,,,,,217.5,110,Pro Open,M,B,Raw,210,215,217.5,,217.5,,1974
3,Andrzej Grzybek,Poland,109.4,,,,,215,110,Pro Open,M,B,Raw,-212.5,215,-220,,215,,1983
4,Oleg Palamarchuk,Ukraine,110,,,,,210,110,Pro Open,M,B,Raw,200,210,-217.5,,210,,1972
5,Dariusz Nowosielski,Poland,108.3,,,,,202.5,110,Pro Open,M,B,Raw,190,197.5,202.5,,202.5,,1983
6,Szymon Stachowicz,Poland,103.5,,,,,200,110,Pro Open,M,B,Raw,190,200,-202.5,,200,,1988
7,Krzysztof Celiński,Poland,102.2,,,,,195,110,Pro Open,M,B,Raw,190,195,-200,,195,,1985
8,Igor Vinyarskyy,Ukraine,100.4,,,,,190,110,Pro Open,M,B,Raw,-190,190,-200,,190,,1983
9,Adam Sławnikowski,Poland,105.3,,,,,190,110,Pro Open,M,B,Raw,185,190,-195,,190,,1986
10,Patryk Kolosek,Poland,103.9,,,,,180,110,Pro Open,M,B,Raw,180,-187.5,-187.5,,180,,1985
1,Krzystof Drozdowski,Poland,119.3,,,,,245,125,Pro Open,M,B,Raw,230,237.5,245,,245,,1983
2,Piotr Wojciechowski,Poland,120.9,,,,,242.5,125,Pro Open,M,B,Raw,225,235,242.5,,242.5,,1984
3,Michał Tybora,Poland,115,,,,,240,125,Pro Open,M,B,Raw,232.5,240,-245,,240,,1987
4,Łukasz Zdobiak,Poland,115,,,,,237.5,125,Pro Open,M,B,Raw,230,237.5,-245,,237.5,,1985
5,Łukasz Kuzioła,Poland,123.7,,,,,227.5,125,Pro Open,M,B,Raw,220,227.5,-232.5,,227.5,,1983
6,Zbignew Drewniak,Poland,123.9,,,,,210,125,Pro Open,M,B,Raw,202.5,207.5,210,,210,,1973
1,Krzysztof Bałys,Poland,125.2,,,,,240,140,Pro Open,M,B,Raw,225,235,240,,240,,1980
2,Konrad Fornalczyk,Poland,125.5,,,,,235,140,Pro Open,M,B,Raw,230,235,-240,,235,,1985
3,Piotr Czapiewski,Poland,126.5,,,,,235,140,Pro Open,M,B,Raw,225,232,235,,235,,1975
4,Artur Kiczuk,Poland,130.3,,,,,220,140,Pro Open,M,B,Raw,200,210,220,,220,,1978
1,Michał Rudziński,Poland,150,,,,,275,140+,Pro Open,M,B,Raw,262.5,272.5,275,,275,,1978
2,Tomasz Węgliński,Poland,143.9,,,,,246,140+,Pro Open,M,B,Raw,235,242.5,246,-250,246,,1978
3,Marcin Karkula,Poland,143.5,,,,,245,140+,Pro Open,M,B,Raw,235,240,245,,245,,1982
4,Dominik Ozdobiński,Poland,155,,,,,180,140+,Pro Open,M,B,Raw,160,170,180,,180,,1987
5,Jerzy Kot,Poland,147,,,,,170,140+,Pro Open,M,B,Raw,160,170,-180,,170,,1968
DQ,Peter Hallberg,Sweden,143.4,,,,,,140+,Pro Open,M,B,Raw,-190,-190,-190,,,,1987
1,Tomasz Chrzanowski,Poland,66.3,,,,,160,67.5,Pro Submasters 33-39,M,B,Raw,145,152.5,160,,160,,1980
1,Radoslaw Rosiak,Great Britain,72.3,,,,,125,75,Pro Submasters 33-39,M,B,Raw,125,-130,-130,,125,,1980
1,Paweł Tyborczyk,Poland,89.3,,,,,210,90,Pro Submasters 33-39,M,B,Raw,-210,210,-215,,210,,1979
2,Marcin Blaszkow,Poland,89.5,,,,,210,90,Pro Submasters 33-39,M,B,Raw,200,210,-215,,210,,1980
3,Piotr Balcerek,Poland,89.3,,,,,207.5,90,Pro Submasters 33-39,M,B,Raw,200,207.5,-210,,207.5,,1979
4,Arkadiusz Macudziński,Poland,89.3,,,,,185,90,Pro Submasters 33-39,M,B,Raw,-180,185,-190,,185,,1980
1,Damian Laskowski,Poland,98.8,,,,,227.5,100,Pro Submasters 33-39,M,B,Raw,200,220,227.5,,227.5,,1980
2,Andrzej Kocyła,Poland,100,,,,,222.5,100,Pro Submasters 33-39,M,B,Raw,210,222.5,-230,,222.5,,1976
3,Damian Mandrela,Poland,93.9,,,,,195,100,Pro Submasters 33-39,M,B,Raw,175,187.5,195,,195,,1978
4,Ákos Lakatos,Hungary,93,,,,,120,100,Pro Submasters 33-39,M,B,Raw,110,115,120,,120,,1984
1,Paweł Liszcz,Poland,106.75,,,,,232.5,110,Pro Submasters 33-39,M,B,Raw,220,230,232.5,,232.5,,1978
1,Paweł Krakowiak,Poland,113,,,,,205,125,Pro Submasters 33-39,M,B,Raw,200,205,-210,,205,,1978
1,Artur Kiczuk,Poland,130.3,,,,,220,140,Pro Submasters 33-39,M,B,Raw,200,210,220,,220,,1978
2,Arkadiusz Duranowski,Poland,132,,,,,190,140,Pro Submasters 33-39,M,B,Raw,170,180,190,,190,,1982
1,Tomasz Węgliński,Poland,143.9,,,,,246,140+,Pro Submasters 33-39,M,B,Raw,235,242.5,246,-250,246,,1978
1,Oleksandr Zhariy,Ukraine,59.9,,,,,122.5,60,Pro Masters 40-44,M,B,Raw,122.5,-127.5,-127.5,,122.5,,1972
1,Dominik Skrzyński,Poland,66.8,,,,,180,67.5,Pro Masters 40-44,M,B,Raw,-180,180,-185.5,,180,,1975
1,Bogdan Kropidlowski,Poland,74.1,,,,,180,75,Pro Masters 40-44,M,B,Raw,170,180,-186,,180,,1971
1,Daniel Cieplak,Poland,87.7,,,,,172.5,90,Pro Masters 40-44,M,B,Raw,165,172.5,-177.5,,172.5,,1973
1,Hovhannes Yazichyan,Armenia,93.8,,,,,205,100,Pro Masters 40-44,M,B,Raw,200,205,-210,,205,,1971
2,Zbigniew Wawrzyniak,Poland,97.6,,,,,182.5,100,Pro Masters 40-44,M,B,Raw,160,170,182.5,,182.5,,1973
3,Krzysztof Jabłoński,Poland,95.5,,,,,180,100,Pro Masters 40-44,M,B,Raw,160,-180,180,,180,,1975
1,Jacek Stańczyk,Poland,108.5,,,,,227.5,110,Pro Masters 40-44,M,B,Raw,210,220,227.5,,227.5,,1972
2,Rafal Gomula,Poland,103.8,,,,,217.5,110,Pro Masters 40-44,M,B,Raw,210,215,217.5,,217.5,,1974
3,Oleg Palamarchuk,Ukraine,110,,,,,210,110,Pro Masters 40-44,M,B,Raw,200,210,-217.5,,210,,1972
4,Endre Jankó,Hungary,110,,,,,200,110,Pro Masters 40-44,M,B,Raw,190,200,-205,,200,,1971
1,Zbignew Drewniak,Poland,123.9,,,,,210,125,Pro Masters 40-44,M,B,Raw,202.5,207.5,210,,210,,1973
2,Marcin Gorzędowski,Poland,118,,,,,207.5,125,Pro Masters 40-44,M,B,Raw,200,-205,207.5,,207.5,,1971
3,Krzystof Chowaniak,Poland,110.1,,,,,200,125,Pro Masters 40-44,M,B,Raw,195,200,-207.5,,200,,1973
4,Radosław Kaleta,Poland,111.2,,,,,185,125,Pro Masters 40-44,M,B,Raw,177.5,185,-190,,185,,1973
5,Waldemar Grzanko,Poland,116,,,,,165,125,Pro Masters 40-44,M,B,Raw,150,165,-187.5,,165,,1973
6,Radosław Chmielecki,Poland,117.5,,,,,150,125,Pro Masters 40-44,M,B,Raw,140,150,-155,,150,,1973
1,Piotr Czapiewski,Poland,126.5,,,,,235,140,Pro Masters 40-44,M,B,Raw,225,232,235,,235,,1975
1,Dmitrii Kukharenko,Spain,80,,,,,177.5,82.5,Pro Masters 45-49,M,B,Raw,172.5,-177.5,177.5,,177.5,,1969
1,Aleksandr Scherbakov,Moldowa,91.7,,,,,230,100,Pro Masters 45-49,M,B,Raw,220,230,-235,,230,,1966
1,Mariusz Łukasiak,Poland,103,,,,,202.5,110,Pro Masters 45-49,M,B,Raw,190,195,202.5,,202.5,,1968
1,Grzegorz Peksa,Poland,146,,,,,200,140+,Pro Masters 45-49,M,B,Raw,190,200,-215,,200,,1969
2,Jerzy Kot,Poland,147,,,,,170,140+,Pro Masters 45-49,M,B,Raw,160,170,-180,,170,,1968
1,Krzysztof Bożyczko-Jałocha,Poland,106.4,,,,,215,110,Pro Masters 50-54,M,B,Raw,200,210,215,,215,,1965
2,Jerzy Jankowski,Poland,103.8,,,,,200,110,Pro Masters 50-54,M,B,Raw,190,200,-210,,200,,1965
3,Mykhailo Geienko,Ukraine,108.5,,,,,170,110,Pro Masters 50-54,M,B,Raw,162.5,170,-172.5,,170,,1963
1,István Tóth,Hungary,62.5,,,,,140,67.5,Pro Masters 55-59,M,B,Raw,130,137.5,140,,140,,1956
1,Antoni Kaliński,Poland,67.2,,,,,115,67.5,Pro Masters 60-64,M,B,Raw,110,115,-117.5,,115,,1953
1,Tadeusz Janiak,Poland,86,,,,,165,90,Pro Masters 60-64,M,B,Raw,160,165,-167.5,,165,,1962
1,Ryszard Wilczak,Poland,108.9,,,,,155,110,Pro Masters 60-64,M,B,Raw,150,155,-160,,155,,1955
1,Wieslaw Ostrowski,Poland,97,,,,,150,100,Pro Masters 65-69,M,B,Raw,140,145,150,,150,,1948
2,Jacenty Buczyński,Poland,95.7,,,,,90,100,Pro Masters 65-69,M,B,Raw,85,90,-95,,90,,1947
1,Henryk Odelski,Poland,104,,,,,140,110,Pro Masters 65-69,M,B,Raw,130,140,-145,,140,,1949
1,Mirosław Orłowski,Poland,95.5,,,,,135,100,Pro Masters 70-74,M,B,Raw,135,-140,-140,,135,,1943
1,Zbigniew Boczar,Poland,81.35,,,,,165,82.5,Pro Military/Fire/Police,M,B,Raw,160,165,-170,,165,,1985
1,Arkadiusz Macudziński,Poland,89.3,,,,,185,90,Pro Military/Fire/Police,M,B,Raw,-180,185,-190,,185,,1980
1,Damian Laskowski,Poland,98.8,,,,,227.5,100,Pro Military/Fire/Police,M,B,Raw,200,220,227.5,,227.5,,1980
2,Andrzej Kocyła,Poland,100,,,,,222.5,100,Pro Military/Fire/Police,M,B,Raw,210,222.5,-230,,222.5,,1976
3,Dominik Flinik,Poland,99.6,,,,,195,100,Pro Military/Fire/Police,M,B,Raw,195,-200,-200,,195,,1986
1,Andrzej Grzybek,Poland,109.4,,,,,215,110,Pro Military/Fire/Police,M,B,Raw,-212.5,215,-220,,215,,1983
2,Patryk Kolosek,Poland,103.9,,,,,180,110,Pro Military/Fire/Police,M,B,Raw,180,-187.5,-187.5,,180,,1985
1,Krzystof Drozdowski,Poland,119.3,,,,,245,125,Pro Military/Fire/Police,M,B,Raw,230,237.5,245,,245,,1983
2,Łukasz Kuzioła,Poland,123.7,,,,,227.5,125,Pro Military/Fire/Police,M,B,Raw,220,227.5,-232.5,,227.5,,1983
3,Krzystof Chowaniak,Poland,110.1,,,,,200,125,Pro Military/Fire/Police,M,B,Raw,195,200,-207.5,,200,,1973
4,Michał Moryson,Poland,117.6,,,,,170,125,Pro Military/Fire/Police,M,B,Raw,160,170,-175,,170,,1992
1,Artur Kiczuk,Poland,130.3,,,,,220,140,Pro Military/Fire/Police,M,B,Raw,200,210,220,,220,,1978
1,Krzystof Janaszkiewicz,Poland,99,,,,,172.5,100,Pro Paralympian,M,B,Raw,160,165,172.5,,172.5,,1983
2,Ákos Lakatos,Hungary,93,,,,,120,100,Pro Paralympian,M,B,Raw,110,115,120,,120,,1984
1,Justyna Wałeska,Poland,57.7,,,,,57.5,60,Pro Juniors 20-23,F,B,Raw,52.5,-57.5,57.5,,57.5,,1994
1,Małgorzata Hałas-Koralewska,Poland,61.5,,,,,107.5,67.5,Pro Open,F,B,Raw,95,102.5,107.5,,107.5,,1987
2,Marta Chachuła,Poland,67.35,,,,,82.5,67.5,Pro Open,F,B,Raw,77.5,80,82.5,,82.5,,1987
1,Anna Paluszik,Poland,67.6,,,,,75,75,Pro Open,F,B,Raw,65,70,75,,75,,1990
2,Sandra Kowalska,Poland,68,,,,,65,75,Pro Open,F,B,Raw,55,60,65,,65,,1986
3,Sara Błońska,Poland,72.5,,,,,42.5,75,Pro Open,F,B,Raw,42.5,-47.5,-47.5,,42.5,,1985
1,Daria Szczęsna,Poland,75.4,,,,,65,82.5,Pro Open,F,B,Raw,60,65,-72.5,,65,,1989
1,Katalin Mezei,Hungary,51.4,,,,,60,52,Pro Submasters 33-39,F,B,Raw,50,55,60,-62.5,60,,1979
1,Olena Shcherbinina,Ukraine,65,,,,,65,67.5,Pro Submasters 33-39,F,B,Raw,62.5,65,-67.5,,65,,1982
1,Adriana Bończak,Poland,60.4,,,,,70,67.5,Pro Masters 40-44,F,B,Raw,70,-75,-75,,70,,1973
1,Jolanta Anasiewicz,Poland,55.05,,,,,72.5,56,Pro Masters 45-49,F,B,Raw,67.5,72.5,-75,,72.5,,1969
1,Maria Jarczak,Poland,96.9,,,,,95,100,Pro Masters 45-49,F,B,Raw,90,95,-97.5,,95,,1966
1,Małgorzata Hałas-Koralewska,Poland,61.5,,,,,107.5,67.5,Pro Paralympian,F,B,Raw,95,102.5,107.5,,107.5,,1987
1,Paweł Chilakowski,Poland,84.8,,,,,165,90,Amateur Juniors 20-23,M,B,Multi-ply,165,-172.5,-172.5,,165,,1993
1,Spartak Dolenjashvili,Georgia,97,,,,,195,100,Amateur Juniors 20-23,M,B,Multi-ply,170,180,195,-205,195,,1995
1,Paweł Chilakowski,Poland,84.8,,,,,165,90,Amateur Open,M,B,Multi-ply,165,-172.5,-172.5,,165,,1993
DQ,Nazarii Perkhulyn,Ukraine,90,,,,,,90,Amateur Open,M,B,Multi-ply,-200,-200,-200,,,,1988
DQ,Juniusz Zbierski,Poland,94,,,,,,100,Amateur Masters 40-44,M,B,Multi-ply,-205,-205,-205,,,,1974
1,Kazimierz Tamiłowski,Poland,79.5,,,,,150,82.5,Amateur Masters 65-69,M,B,Multi-ply,145,150,-2000,,150,,1948
1,Adam Kopka,Poland,126,,,,,135,140,Pro Teen 16-17,M,B,Multi-ply,125,135,-150,,135,,1998
1,Kamil Lipiński,Poland,85.5,,,,,110,90,Pro Teen 18-19,M,B,Multi-ply,110,-160,-160,,110,,1996
1,Tomasz Wawrzyczek,Poland,91.3,,,,,200,100,Pro Teen 18-19,M,B,Multi-ply,200,-220,-220,,200,,1996
1,Rafał Żarnowski,Poland,82.3,,,,,175,82.5,Pro Juniors 20-23,M,B,Multi-ply,170,175,-180,,175,,1992
DQ,Adrian Kopania,Poland,81.8,,,,,,82.5,Pro Juniors 20-23,M,B,Multi-ply,-220,-220,-220,,,,1993
1,Sebastian Pawlik,Poland,96.4,,,,,250,100,Pro Juniors 20-23,M,B,Multi-ply,240,-250,250,-260,250,,1992
1,Roman Pelykh,Ukraine,75,,,,,225,75,Pro Open,M,B,Multi-ply,225,-235,-2000,,225,,1985
1,Sebastian Dąbrowski,Poland,89.6,,,,,265,90,Pro Open,M,B,Multi-ply,255,265,-275,,265,,1980
2,Artur Miksa,Poland,85.4,,,,,250,90,Pro Open,M,B,Multi-ply,250,-260,-260,,250,,1983
3,Volodymyr Galyga,Ukraine,89.4,,,,,245,90,Pro Open,M,B,Multi-ply,245,-250,,,245,,1983
1,Sebastian Pawlik,Poland,96.4,,,,,250,100,Pro Open,M,B,Multi-ply,240,-250,250,-260,250,,1992
2,Vitaliy Sobkovskiy,Ukraine,91.8,,,,,195,100,Pro Open,M,B,Multi-ply,195,-205,-212.5,,195,,1991
DQ,Franciszek Szabluk,Poland,96,,,,,,100,Pro Open,M,B,Multi-ply,-220,-220,-220,,,,1956
1,Krzysztof Celiński,Poland,102.2,,,,,240,110,Pro Open,M,B,Multi-ply,230,240,-250,,240,,1985
2,Sebastjan Balner,Poland,105.1,,,,,220,110,Pro Open,M,B,Multi-ply,220,-240,-240,,220,,1973
1,Grzegorz Wałga,Poland,115.6,,,,,340,125,Pro Open,M,B,Multi-ply,340,-360,-370,,340,,1987
2,Łukasz Jałowiecki,Poland,112.5,,,,,220,125,Pro Open,M,B,Multi-ply,200,-220,220,,220,,1985
1,Tomasz Czapiewski,Poland,138,,,,,190,140,Pro Open,M,B,Multi-ply,190,-250,-261,,190,,1977
DQ,Bartłomiej Rogoziński,Poland,101,,,,,,110,Pro Submasters 33-39,M,B,Multi-ply,-195,-195,-197.5,,,,1982
1,Tomasz Czapiewski,Poland,138,,,,,190,140,Pro Submasters 33-39,M,B,Multi-ply,190,-250,-261,,190,,1977
1,Daniel Cieplak,Poland,86.7,,,,,235,90,Pro Masters 40-44,M,B,Multi-ply,220,227.5,235,,235,,1973
1,Sebastjan Balner,Poland,105.1,,,,,220,110,Pro Masters 40-44,M,B,Multi-ply,220,-240,-240,,220,,1973
1,Mirosław Zakrzewski,Poland,114,,,,,270,125,Pro Masters 40-44,M,B,Multi-ply,-270,-270,270,,270,,1974
1,Stanisław Kozeko,Poland,89.9,,,,,170,90,Pro Masters 55-59,M,B,Multi-ply,150,170,-185,,170,,1957
DQ,Franciszek Szabluk,Poland,96,,,,,,100,Pro Masters 55-59,M,B,Multi-ply,-220,-220,-220,,,,1956
1,Wojciech Grabowski,Poland,108.9,,,,,270,110,Pro Masters 60-64,M,B,Multi-ply,250,270,-275,,270,,1951
1,Mirosław Orłowski,Poland,95.5,,,,,160,100,Pro Masters 70-74,M,B,Multi-ply,-160,160,-166,,160,,1943
1,Ewa Owsiany,Poland,67.5,,,,,100,67.5,Pro Open,F,B,Multi-ply,90,100,-115,,100,,1987
