Place,Name,BirthYear,Country,Sex,WeightClassKg,BodyweightKg,Squat1Kg,Squat2Kg,Squat3Kg,Best3SquatKg,Bench1Kg,Bench2Kg,Bench3Kg,Best3BenchKg,Deadlift1Kg,Deadlift2Kg,Deadlift3Kg,Best3DeadliftKg,TotalKg,Event,Equipment
1,Maryana Plaksyva,1987,UKR,F,52,51.8,130,140,150,150,62.5,67.5,-70,67.5,125,132.5,-140,132.5,350,SBD,Single-ply
2,Mariana Marinova,1975,BUL,F,52,51.4,85,95,102.5,102.5,55,60,-62.5,60,125,135,,135,297.5,SBD,Single-ply
3,Karin Hollaus,1971,AUT,F,52,50.3,-90,95,102.5,102.5,50,-55,-55,50,105,112.5,115,115,267.5,SBD,Single-ply
1,Mariya Chepil,1970,UKR,F,56,55.4,150,160,170,170,92.5,97.5,-102.5,97.5,150,170,175,175,442.5,SBD,Single-ply
2,Magdolna Petróczki,1968,HUN,F,56,55.3,130,140,147.5,147.5,65,70,-77.5,70,140,150,,150,367.5,SBD,Single-ply
3,Eva Lukacevicova,1981,SVK,F,56,54.2,-90,90,-95,90,37.5,40,42.5,42.5,100,110,117.5,117.5,250,SBD,Single-ply
4,Agnes Fehér,1984,HUN2,F,56,54.6,-85,85,95,95,42.5,47.5,-50,47.5,100,105,107.5,107.5,250,SBD,Single-ply
1,Rita Nagy,1974,HUN,F,60,59.1,140,147.5,155,155,90,97.5,-105,97.5,150,165,172.5,172.5,425,SBD,Single-ply
2,Zsuzsa Graner,1981,HUN2,F,60,58.2,110,115,120,120,70,-72.5,,70,115,120,150,150,340,SBD,Single-ply
3,Laura Adorjan,1975,HUN,F,60,59.5,-110,-110,110,110,55,62.5,-67.5,62.5,130,-140,-140,130,302.5,SBD,Single-ply
1,Anna Dittler,1946,HUN,F,67.5,65.6,-180,180,190,190,90,95,97.5,97.5,-155,160,165,165,452.5,SBD,Single-ply
2,Sabine Zangerle,1971,AUT,F,67.5,66.3,130,137.5,142.5,142.5,65,70,75,75,135,142.5,-147.5,142.5,360,SBD,Single-ply
1,Katalin Rohrmann,1953,HUN,F,75,70.9,105,112.5,117.5,117.5,70,75,80,80,120,130,140,140,337.5,SBD,Single-ply
2,Ildiko Kozma,1971,HUN2,F,75,67.6,70,75,80,80,60,,,60,105,110,115,115,255,SBD,Single-ply
3,Zsuszana Németh,1955,HUN2,F,75,71.9,-70,-70,70,70,60,-65,65,65,90,105,112.5,112.5,247.5,SBD,Single-ply
1,Jana Sedláčková,1980,SVK,F,82.5,75.45,150,165,175,175,80,85,90,90,190,200,205,205,470,SBD,Single-ply
2,Viktoria Nagy,1966,HUN2,F,82.5,80.5,100,105,110,110,55,60,62.5,62.5,130,140,145,145,317.5,SBD,Single-ply
1,Rosemarie Beer,1945,AUT,F,90,83.5,155,165,175,175,100,107.5,112.5,112.5,155,165,175,175,462.5,SBD,Single-ply
1,Katarina Kardosová,1976,SVK,F,90+,90.1,-150,150,-160,150,110,-117.5,-117.5,110,150,155,,155,415,SBD,Single-ply
1,Jürgen Nemeth,1972,AUT,M,60,59.9,190,-200,200,200,115,120,-122.5,120,215,225,-230,225,545,SBD,Single-ply
2,Dušan Skirkanič,1961,SVK,M,60,59.2,160,180,192.5,192.5,105,112.5,120,120,190,-205,205,205,517.5,SBD,Single-ply
3,Štefan Koľšovský,1961,SVK,M,60,58.6,185,200,205,205,130,140,142.5,142.5,150,165,-172.5,165,512.5,SBD,Single-ply
1,Anton Mihok,1957,SVK,M,67.5,67.5,240,255,262.5,262.5,150,160,165,165,225,240,-250,240,667.5,SBD,Single-ply
1,Andriy Ivzhenko,1977,UKR,M,75,74.7,280,290,305,305,160,167.5,170,170,250,257.5,267.5,267.5,742.5,SBD,Single-ply
2,Andreas Zeilinger,1968,AUT,M,75,75,255,265,275,275,180,190,-195,190,255,265,-280,265,730,SBD,Single-ply
3,Peter Vadasz,1979,HUN2,M,75,74.5,215,230,240,240,150,165,-172.5,165,185,210,,210,615,SBD,Single-ply
1,Peter Rick,1976,HUN,M,82.5,82.1,240,255,265,265,175,185,190,190,300,315,322.5,322.5,777.5,SBD,Single-ply
2,Arkadiy Bukhtiychuk,1971,UKR,M,82.5,81.7,305,315,-322.5,315,130,155,-160,155,290,300,305,305,775,SBD,Single-ply
3,Tibor Buki,1978,HUN3,M,82.5,80.8,,170,-185,170,-120,120,125,125,200,210,215,215,510,SBD,Single-ply
1,Gerhard Grossbeck,1976,AUT,M,90,87.3,280,290,300,300,195,205,-210,205,270,280,-290,280,785,SBD,Single-ply
1,Attila Máté,1968,HUN2,M,100,99.5,240,250,262.5,262.5,190,202.5,-207.5,202.5,255,265,275,275,740,SBD,Single-ply
2,Zoltan Horvath,1970,HUN2,M,100,99.3,230,240,250,250,145,152.5,-157.5,152.5,280,290,-295,290,692.5,SBD,Single-ply
3,Csaba Simon,1968,HUN2,M,100,91.6,225,235,245,245,140,150,-152.5,150,270,280,-290,280,675,SBD,Single-ply
1,Yuriy Kostenko,,,M,110,101.8,300,317.5,325,325,200,210,-217.5,210,300,312.5,-325,312.5,847.5,SBD,Single-ply
2,Ádám Farkas,1981,UKR,M,110,109.8,-280,280,300,300,180,190,-200,190,270,290,-300,290,780,SBD,Single-ply
3,Zsolt Molnár,1979,HUN2,M,110,107,240,255,262.5,262.5,175,185,190,190,270,295,-300,295,747.5,SBD,Single-ply
4,Hans Dzuban,1965,AUT,M,110,110,255,280,290,290,172.5,-177.5,-177.5,172.5,255,-260,,255,717.5,SBD,Single-ply
1,Istvan Arvai,1974,HUN,M,125,117.3,360,380,400,400,240,255,262.5,262.5,340,355,365,365,1027.5,SBD,Single-ply
2,Juraj Pazstor,1960,SVK,M,125,112,285,300,315,315,162.5,167.5,,167.5,285,300,,300,782.5,SBD,Single-ply
3,Tamás Bartalos,1973,HUN,M,125,113.5,-240,240,250,250,210,220,-230,220,250,-270,-270,250,720,SBD,Single-ply
1,Tamas Velinzki,1975,HUN2,M,125+,127.2,280,300,310,310,190,200,-205,200,270,290,-310,290,800,SBD,Single-ply
2,Christian Straka,1966,AUT,M,125+,126.5,250,262.5,272.5,272.5,190,200,205,205,270,285,292.5,292.5,770,SBD,Single-ply
