Sex,WeightClassKg,Name,AgeClass,Team,BodyweightKg,Best3SquatKg,Best3BenchKg,Best3DeadliftKg,TotalKg,Place,Division,Event,Equipment
M,82.5,Frank Quartey-Gyamfi,39.5-48.5,GL,77,195,120,205,520,2,M-E-open,SBD,Single-ply
M,82.5,Andy Ly,0-22.5,GL,75,220,125,255,600,1,M-E-open,SBD,Single-ply
M,90,Derrick Mirikitani,0-22.5,GL,89,240,137.5,225,602.5,1,M-E-open,SBD,Single-ply
M,100,Ola Oyefeso,0-22.5,GL,100,260,155,320,735,1,M-E-open,SBD,Single-ply
M,100,David Watkins,0-22.5,GL,96,205,90,270,565,3,M-E-open,SBD,Single-ply
M,100,Gary Mitchell,39.5-48.5,GL,99.5,280,165,270,715,2,M-E-open,SBD,Single-ply
