Place,Name,Country,Sex,Event,Equipment,Age,BodyweightKg,Division,WeightClassKg,Squat1Kg,Squat2Kg,Squat3Kg,Squat4Kg,Best3SquatKg,Bench1Kg,Bench2Kg,Bench3Kg,Bench4Kg,Best3BenchKg,Deadlift1Kg,Deadlift2Kg,Deadlift3Kg,Deadlift4Kg,Best3DeadliftKg,TotalKg
1,Dagmar Liptáková,Svk,F,B,Multi-ply,41,64,M40-44,67.5,,,,,,120,127.5,135,,135,,,,,,135
1,Viola Kongehl,Ger,F,B,Multi-ply,49,70.5,M45-49,75,,,,,,80,85,90,,90,,,,,,90
1,Ursula Eulenstein,Ger,F,B,Multi-ply,68,81.9,M65-69,82.5,,,,,,70,75,77.5,,77.5,,,,,,77.5
1,Monika Tišlerová,Cze,F,B,Multi-ply,34,67.3,Open,67.5,,,,,,100,-107.5,-110,,100,,,,,,100
1,Zdenka Hudíková,Svk,F,B,Multi-ply,37,79.4,Submaster,82.5,,,,,,100,110,120,,120,,,,,,120
DQ,István Gyuricska Jr,Hun,M,B,Multi-ply,16,74.4,T16-17,75,,,,,,-165,,,,,,,,,,
1,Denis Borcha,Svk,M,B,Multi-ply,17,144.9,T16-17,140+,,,,,,180,190,-200,-207.5,190,,,,,,190
1,Jiří Boček,Cze,M,B,Multi-ply,19,76.6,T18-19,82.5,,,,,,120,130,-142.5,,130,,,,,,130
1,Ron Krieg,Ger,M,B,Multi-ply,19,137,T18-19,140,,,,,,205,215,-220,,215,,,,,,215
1,Marek Herák,Svk,M,B,Multi-ply,21,67.2,Junior,67.5,,,,,,-190,-200,205,,205,,,,,,205
1,Alexander Wartig,Ger,M,B,Multi-ply,21,77.7,Junior,82.5,,,,,,-152.5,-152.5,152.5,,152.5,,,,,,152.5
1,Peter Uhrecký,Svk,M,B,Multi-ply,20,88,Junior,90,,,,,,-190,-197.5,202.5,,202.5,,,,,,202.5
1,Marcel Kleuß,Ger,M,B,Multi-ply,21,92,Junior,100,,,,,,160,-165,-165,,160,,,,,,160
1,Richard Rüdisser,Aut,M,B,Multi-ply,34,150.8,Open,140+,,,,,,210,220,-230,,220,,,,,,220
1,Steffen Blumental,Ger,M,B,Multi-ply,33,74.1,Open,75,,,,,,230,-237.5,-237.5,,230,,,,,,230
DQ,Marek Jelínek,Cze,M,B,Multi-ply,27,70.2,Open,75,,,,,,-180,-180,-180,,,,,,,,
1,Filip Stanko,Svk,M,B,Multi-ply,27,78.7,Open,82.5,,,,,,230,-240,-245,,230,,,,,,230
2,Zoltán Szabó,Hun,M,B,Multi-ply,32,81.9,Open,82.5,,,,,,195,207.5,-215,,207.5,,,,,,207.5
3,Matej Chovanec,Svk,M,B,Multi-ply,27,81,Open,82.5,,,,,,190,-195,,,190,,,,,,190
1,Jan Lorenc,Cze,M,B,Multi-ply,27,88.3,Open,90,,,,,,170,182.5,-187.5,,182.5,,,,,,182.5
2,Elias Dobrowolski,Ger,M,B,Multi-ply,29,97.5,Open,100,,,,,,190,-210,-210,,190,,,,,,190
3,Matthias Rensi,Aut,M,B,Multi-ply,26,94.8,Open,100,,,,,,165,172.5,-180,,172.5,,,,,,172.5
1,Sebastian Balner,Pol,M,B,Multi-ply,44,101.6,Open,110,,,,,,190,200,205,,205,,,,,,205
2,Marcel Trost,Ger,M,B,Multi-ply,34,108,Open,110,,,,,,180,-192.5,-202.5,,180,,,,,,180
1,Łukasz Jałowiecki,Pol,M,B,Multi-ply,31,116.2,Open,125,,,,,,220,230,-235,,230,,,,,,230
2,Richard Gensch,Ger,M,B,Multi-ply,32,114.5,Open,125,,,,,,190,-210,-230,,190,,,,,,190
1,Jan Sylvester,Ger,M,B,Multi-ply,32,127.1,Open,140,,,,,,230,-240,240,,240,,,,,,240
1,Robin Von-Zweydorff,Ger,M,B,Multi-ply,37,89.1,Submaster,90,,,,,,245,255,-266,,255,,,,,,255
1,Jaromír Kratochvíl,Cze,M,B,Multi-ply,39,99.8,Submaster,100,,,,,,-270,270,275,,275,,,,,,275
1,Krisztián Kovács,Hun,M,B,Multi-ply,35,115.3,Submaster,125,,,,,,190,195,200,,200,,,,,,200
2,Andreas Senger,Ger,M,B,Multi-ply,38,114,Submaster,125,,,,,,170,-177.5,177.5,,177.5,,,,,,177.5
1,Janoš Ungai,Hun,M,B,Multi-ply,41,73.8,M40-44,75,,,,,,155,160,165,,165,,,,,,165
2,Gordon Schramke,Ger,M,B,Multi-ply,43,72.8,M40-44,75,,,,,,145,-155,-155,,145,,,,,,145
1,Igors Marudins,Lat,M,B,Multi-ply,41,82.4,M40-44,82.5,,,,,,170,-185,-185,,170,,,,,,170
1,Daniel Kaufmann,Ger,M,B,Multi-ply,41,94.1,M40-44,100,,,,,,170,210,-230,,210,,,,,,210
2,Mihails Rekaikins,Lat,M,B,Multi-ply,41,96.2,M40-44,100,,,,,,160,190,-212.5,,190,,,,,,190
3,Mario Auer,Aut,M,B,Multi-ply,44,91.9,M40-44,100,,,,,,150,160,,,160,,,,,,160
1,Petr Hron,Cze,M,B,Multi-ply,40,107.4,M40-44,110,,,,,,240,250,255,261,255,,,,,,255
2,Eduard Sidó,Svk,M,B,Multi-ply,40,107.6,M40-44,110,,,,,,235,245,-252.5,,245,,,,,,245
3,Radovan Kaděra,Cze,M,B,Multi-ply,40,107.9,M40-44,110,,,,,,205,215,-220,,215,,,,,,215
4,Sebastian Balner,Pol,M,B,Multi-ply,44,101.6,M40-44,110,,,,,,205,-215,-220,,205,,,,,,205
1,Marek Hlaváč,Cze,M,B,Multi-ply,41,115.1,M40-44,125,,,,,,230,245,260,,260,,,,,,260
1,Kai-Uwe Göllnitz,Ger,M,B,Multi-ply,43,129.7,M40-44,140,,,,,,270,282.5,-300,,282.5,,,,,,282.5
1,Rudolf Siska,Svk,M,B,Multi-ply,46,82.1,M45-49,82.5,,,,,,180,190,-200,,190,,,,,,190
1,Steffen Reisbach,Ger,M,B,Multi-ply,49,90.1,M45-49,100,,,,,,180,182.5,185,,185,,,,,,185
2,Heiko Mehnert,Ger,M,B,Multi-ply,48,93.2,M45-49,100,,,,,,160,,,,160,,,,,,160
1,László Haraszti,Hun,M,B,Multi-ply,46,109.1,M45-49,110,,,,,,200,210,222.5,,222.5,,,,,,222.5
DQ,Petr Poláček,Cze,M,B,Multi-ply,45,107.1,M45-49,110,,,,,,-220,-220,-220,,,,,,,,
1,Kai Uwe Werner,Ger,M,B,Multi-ply,46,119.2,M45-49,125,,,,,,270,280,-285,,280,,,,,,280
2,Petr Šulc,Cze,M,B,Multi-ply,48,120.9,M45-49,125,,,,,,210,-240,-240,,210,,,,,,210
1,Reiko Kruse,Ger,M,B,Multi-ply,45,125.4,M45-49,140,,,,,,250,-260,-260,,250,,,,,,250
1,Frank Hennig,Ger,M,B,Multi-ply,53,79.9,M50-54,82.5,,,,,,135,140,145,,145,,,,,,145
DQ,István Gyuricska Jr,Hun,M,B,Multi-ply,50,82.8,M50-54,90,,,,,,-185,,,,,,,,,,
1,Olegs Illarionovs,Lat,M,B,Multi-ply,51,95.7,M50-54,100,,,,,,230,240,251,-255,251,,,,,,251
1,Viktor Kudi,Cze,M,B,Multi-ply,51,118,M50-54,125,,,,,,285,300,310,,310,,,,,,310
2,Saša Mašanović,Mne,M,B,Multi-ply,50,124,M50-54,125,,,,,,215,225,230,,230,,,,,,230
3,Boris Švirec,Svk,M,B,Multi-ply,53,114.4,M50-54,125,,,,,,180,190,-195,,190,,,,,,190
1,Tim Moon,Usa,M,B,Multi-ply,53,132.4,M50-54,140,,,,,,340,-365,-375,,340,,,,,,340
1,Uwe Herfort,Ger,M,B,Multi-ply,57,76.5,M55-59,82.5,,,,,,150,152.5,157.5,,157.5,,,,,,157.5
1,Peter Rathke,Ger,M,B,Multi-ply,57,89.1,M55-59,90,,,,,,172.5,180,187.5,,187.5,,,,,,187.5
2,Ota Drudík,Cze,M,B,Multi-ply,56,89.1,M55-59,90,,,,,,160,185,-190,,185,,,,,,185
3,Florián Dolán,Svk,M,B,Multi-ply,55,83.8,M55-59,90,,,,,,150,155,160,,160,,,,,,160
1,Pavol Stopiak,Svk,M,B,Multi-ply,59,93,M55-59,100,,,,,,130,137.5,140,,140,,,,,,140
2,Falk Steinkopf,Ger,M,B,Multi-ply,56,96.4,M55-59,100,,,,,,130,140,-145,,140,,,,,,140
1,Frank Hurrass,Ger,M,B,Multi-ply,56,113.4,M55-59,125,,,,,,-170,170,185,-213,185,,,,,,185
1,Pál Kovács,Hun,M,B,Multi-ply,55,127.7,M55-59,140,,,,,,165,175,180,,180,,,,,,180
1,Péter Mihály,Svk,M,B,Multi-ply,59,153.8,M55-59,140+,,,,,,150,,,,150,,,,,,150
1,Bernard Hojka,Pol,M,B,Multi-ply,64,69,M60-64,75,,,,,,70,80,-90,,80,,,,,,80
1,Josef Belica,Svk,M,B,Multi-ply,61,102.9,M60-64,110,,,,,,-165,165,-175,,165,,,,,,165
2,Karel Leibl,Cze,M,B,Multi-ply,63,105.8,M60-64,110,,,,,,100,-140,-150,,100,,,,,,100
1,Klaus Grosser,Ger,M,B,Multi-ply,62,113.9,M60-64,125,,,,,,-170,170,180,,180,,,,,,180
1,Klaus Krüger,Ger,M,B,Multi-ply,65,92.9,M65-69,100,,,,,,165,-175,,,165,,,,,,165
2,Armin Bunzel,Ger,M,B,Multi-ply,65,95.1,M65-69,100,,,,,,-130,130,,,130,,,,,,130
1,Ulrich Vetter,Ger,M,B,Multi-ply,65,107,M65-69,110,,,,,,170,180,196,,196,,,,,,196
1,Josef Hakl,Cze,M,B,Multi-ply,67,117.6,M65-69,125,,,,,,190,200,205,,205,,,,,,205
2,Josef Nussbaumer,Aut,M,B,Multi-ply,66,113.8,M65-69,125,,,,,,190,200,-205.5,-205.5,200,,,,,,200
1,Roland Götz,Ger,M,B,Multi-ply,71,75.9,M70-74,82.5,,,,,,105,-115,-115,,105,,,,,,105
1,Joachim Eulenstein,Ger,M,B,Multi-ply,70,94.7,M70-74,100,,,,,,100,110,115,,115,,,,,,115
1,Erwin Trichlin,Aut,M,B,Multi-ply,78,64.2,M75-79,67.5,,,,,,90,97.5,-102.5,,97.5,,,,,,97.5
1,Veronika Sekeráková,Cze,F,B,Raw,18,64.5,T18-19,67.5,,,,,,50,-55,55,,55,,,,,,55
1,Rózsa Sipeki,Hun,F,B,Raw,23,60.6,Junior,67.5,,,,,,55,-62.5,-62.5,,55,,,,,,55
1,Valentina Valič,Slo,F,B,Raw,41,51.6,M40-44,52,,,,,,35,-40,40,,40,,,,,,40
1,Daniela Adamkiewiez,Ger,F,B,Raw,40,58.7,M40-44,60,,,,,,67.5,72.5,-75,-75,72.5,,,,,,72.5
2,Katarína Stasová,Svk,F,B,Raw,40,59.4,M40-44,60,,,,,,72.5,-75,-75,,72.5,,,,,,72.5
3,Ilona Egri,Hun,F,B,Raw,44,57.3,M40-44,60,,,,,,57.5,60,-62.5,,60,,,,,,60
1,Mónika Bazsó,Hun,F,B,Raw,43,67.3,M40-44,67.5,,,,,,82.5,90,95,,95,,,,,,95
1,Anna Szlávik,Hun,F,B,Raw,44,82.2,M40-44,82.5,,,,,,65,,,,65,,,,,,65
1,Popowicz Jolanta Anasienicz,Pol,F,B,Raw,48,59.5,M45-49,60,,,,,,85,90,-92.5,-92.5,90,,,,,,90
1,Schindlerné Katalin Kis,Hun,F,B,Raw,46,67.1,M45-49,67.5,,,,,,100,-107.5,-107.5,,100,,,,,,100
1,Krystyna Puzio,Pol,F,B,Raw,52,95.7,M50-54,90+,,,,,,60,-65,65,-66,65,,,,,,65
1,Karin Behrends,Ger,F,B,Raw,53,77.7,M50-54,82.5,,,,,,70,72.5,-75,,72.5,,,,,,72.5
1,Anne Kathrin Miegel,Ger,F,B,Raw,52,86.1,M50-54,90,,,,,,57.5,60,-62.5,,60,,,,,,60
1,Libuše Leiblová,Cze,F,B,Raw,56,87.9,M55-59,90,,,,,,120,130,135,,135,,,,,,135
1,Ernőné Ujvári,Hun,F,B,Raw,67,67.9,M65-69,75,,,,,,45,50,52.5,,52.5,,,,,,52.5
1,Ursula Eulenstein,Ger,F,B,Raw,68,81.4,M65-69,82.5,,,,,,70,75,-77.5,,75,,,,,,75
1,Ingrid Cedel,Ger,F,B,Raw,70,61.4,M70-74,67.5,,,,,,40,45,-47.5,,45,,,,,,45
1,Pia Schubert,Ger,F,B,Raw,27,57.4,Open,60,,,,,,47.5,-50,-50,,47.5,,,,,,47.5
1,Nikolett Contleitner,Hun,F,B,Raw,24,84.5,Open,90,,,,,,45,-50,-50,,45,,,,,,45
1,Nicole Kegeler,Ger,F,B,Raw,35,61.4,Submaster,67.5,,,,,,80,82.5,85,,85,,,,,,85
2,Monika Gryziecka,Pol,F,B,Raw,36,63.5,Submaster,67.5,,,,,,57.5,62.5,65,,65,,,,,,65
1,Tatiana Magulová,Svk,F,B,Raw,36,73.6,Submaster,75,,,,,,75,77.5,80,,80,,,,,,80
DQ,Kerstin Sacks,Ger,F,B,Raw,39,77.4,Submaster,82.5,,,,,,-50,-50,-50,,,,,,,,
1,Tom Huschenbett,Ger,M,B,Raw,17,48,T16-17,56,,,,,,90,-100,-100,,90,,,,,,90
1,Lukáš Šafr,Cze,M,B,Raw,16,60,T16-17,60,,,,,,60,-70,70,,70,,,,,,70
1,László Kozák,Hun,M,B,Raw,16,61,T16-17,67.5,,,,,,140,150,-160,-160,150,,,,,,150
1,István Gyuricska Jr,Hun,M,B,Raw,16,74,T16-17,75,,,,,,122.5,130,-135,135,130,,,,,,130
2,Csaba Péter,Svk,M,B,Raw,17,70.5,T16-17,75,,,,,,110,120,125,,125,,,,,,125
1,Nils Mario Biermordt,Ger,M,B,Raw,17,99.3,T16-17,100,,,,,,145,150,155,160,155,,,,,,155
2,Alex Maryška,Cze,M,B,Raw,16,94.5,T16-17,100,,,,,,95,105,107.5,-110,107.5,,,,,,107.5
1,Martin Mikeš,Cze,M,B,Raw,16,108.3,T16-17,110,,,,,,115,125,133,-135,133,,,,,,133
1,Marcel Macura,Svk,M,B,Raw,18,72.8,T18-19,75,,,,,,130,135,-142.5,,135,,,,,,135
2,Filip Čierny,Svk,M,B,Raw,19,71.2,T18-19,75,,,,,,-80,90,100,,100,,,,,,100
1,Ádám Berki,Hun,M,B,Raw,18,80.9,T18-19,82.5,,,,,,160,165,171,-172.5,171,,,,,,171
1,Patrik Podraczky,Hun,M,B,Raw,19,101.8,T18-19,110,,,,,,172.5,182.5,190,,190,,,,,,190
2,Marko Trivković,Bih,M,B,Raw,18,106.6,T18-19,110,,,,,,130,-140,-140,,130,,,,,,130
1,Ron Krieg,Ger,M,B,Raw,19,136,T18-19,140,,,,,,172.5,180,185,,185,,,,,,185
1,Bence Sinka,Hun,M,B,Raw,21,74.7,Junior,75,,,,,,-140,-145,145,,145,,,,,,145
1,Patryk Duraj,Pol,M,B,Raw,23,81.7,Junior,82.5,,,,,,170,177.5,186,,186,,,,,,186
2,Miklós Nándor Nagy,Hun,M,B,Raw,20,80.6,Junior,82.5,,,,,,152.5,157.5,162.5,,162.5,,,,,,162.5
3,Jaroslav Vácha,Cze,M,B,Raw,22,79.9,Junior,82.5,,,,,,150,155,-160,,155,,,,,,155
4,Petr Skřinář,Cze,M,B,Raw,23,80.9,Junior,82.5,,,,,,145,155,-162.5,,155,,,,,,155
5,Lukáš Liebreich,Cze,M,B,Raw,21,82.1,Junior,82.5,,,,,,-145,145,-155,,145,,,,,,145
1,Dávid Rizmayer,Hun,M,B,Raw,22,89.6,Junior,90,,,,,,181,192.5,-200,200,192.5,,,,,,192.5
2,Patrik Hajduk,Pol,M,B,Raw,20,89.9,Junior,90,,,,,,155,160,170,,170,,,,,,170
3,Patryk Kaczmarek,Pol,M,B,Raw,22,88.8,Junior,90,,,,,,150,155,157.5,,157.5,,,,,,157.5
4,Dominik Špinka,Cze,M,B,Raw,22,87.8,Junior,90,,,,,,140,150,-155,,150,,,,,,150
5,Martin Schüller,Aut,M,B,Raw,20,89.7,Junior,90,,,,,,130,135,-140,,135,,,,,,135
1,Krystian Piotrak,Pol,M,B,Raw,22,92.4,Junior,100,,,,,,190,200,205,,205,,,,,,205
2,David Klír,Cze,M,B,Raw,22,99.3,Junior,100,,,,,,185,192.5,195,,195,,,,,,195
3,Michal Hrivňak,Svk,M,B,Raw,23,97.2,Junior,100,,,,,,180,187.5,190,,190,,,,,,190
4,Alan Kulak,Pol,M,B,Raw,23,99,Junior,100,,,,,,185,-192.5,-192.5,,185,,,,,,185
5,Richárd Németh,Hun,M,B,Raw,23,99.4,Junior,100,,,,,,175,-187.5,-187.5,,175,,,,,,175
6,Jakub Fabišík,Svk,M,B,Raw,23,94.8,Junior,100,,,,,,165,-175,-175,,165,,,,,,165
7,Roman Bednár,Svk,M,B,Raw,22,95.4,Junior,100,,,,,,145,155,160,,160,,,,,,160
8,Nikolas Neuman,Cze,M,B,Raw,20,92.2,Junior,100,,,,,,150,157.5,-162.5,,157.5,,,,,,157.5
1,Artur Gogoliński,Pol,M,B,Raw,22,107.6,Junior,110,,,,,,210,217.5,220,,220,,,,,,220
2,Róbert Majoros,Hun,M,B,Raw,23,106.3,Junior,110,,,,,,200,212.5,217.5,,217.5,,,,,,217.5
3,Stanislav Močkor,Svk,M,B,Raw,21,102.9,Junior,110,,,,,,195,205,-210,,205,,,,,,205
4,Lukáš Forejtek,Cze,M,B,Raw,23,106.3,Junior,110,,,,,,190,195,200,,200,,,,,,200
5,Matej Grígel,Svk,M,B,Raw,23,104.6,Junior,110,,,,,,190,-200,-200,,190,,,,,,190
1,Péter Dobos,Hun,M,B,Raw,32,58.1,Open,60,,,,,,60,65,-70,,65,,,,,,65
1,Ondrej Oláh,Svk,M,B,Raw,26,62.7,Open,67.5,,,,,,142.5,147.5,150,,150,,,,,,150
2,Sergej Schiling,Ger,M,B,Raw,32,67.5,Open,67.5,,,,,,142.5,-147.5,-150,,142.5,,,,,,142.5
1,Konrad Adamaszek,Pol,M,B,Raw,30,74.8,Open,75,,,,,,182.5,185,,,185,,,,,,185
2,Milan Grozdanović,Srb,M,B,Raw,28,75,Open,75,,,,,,150,155,-157.5,,155,,,,,,155
1,Rafał Krawczyk,Pol,M,B,Raw,26,82.2,Open,82.5,,,,,,157.5,162.5,167.5,,167.5,,,,,,167.5
2,Gábor Molnár,Hun,M,B,Raw,24,79,Open,82.5,,,,,,155,160,165,,165,,,,,,165
3,Libor Budina,Cze,M,B,Raw,34,80.3,Open,82.5,,,,,,160,-165,-167.5,,160,,,,,,160
1,Artur Miksa,Pol,M,B,Raw,34,88.3,Open,90,,,,,,210,220,225,230,225,,,,,,225
2,Kornél Szabó,Hun,M,B,Raw,31,89,Open,90,,,,,,180,185,187.5,,187.5,,,,,,187.5
3,Jonáš Uher,Cze,M,B,Raw,30,88.8,Open,90,,,,,,180,185,-187.5,,185,,,,,,185
4,Pavel Landiga,Cze,M,B,Raw,26,87.4,Open,90,,,,,,155,160,162.5,,162.5,,,,,,162.5
5,Tim Kassner,Ger,M,B,Raw,28,86.3,Open,90,,,,,,150,-155,-155,,150,,,,,,150
1,Goran Sismanovic,Slo,M,B,Raw,36,96.7,Open,100,,,,,,190,-200,-200,,190,,,,,,190
2,Roman Kočí,Cze,M,B,Raw,28,91.5,Open,100,,,,,,160,165,170,,170,,,,,,170
3,Jan Satrapa,Cze,M,B,Raw,31,97.1,Open,100,,,,,,140,150,-160,,150,,,,,,150
DQ,Viktor Griga,Cze,M,B,Raw,26,98.7,Open,100,,,,,,,,,,,,,,,,
1,Vlastimil Kužel,Cze,M,B,Raw,40,109.8,Open,110,,,,,,251.5,257.5,-262,,257.5,,,,,,257.5
2,Ákos Oláh,Hun,M,B,Raw,28,105.9,Open,110,,,,,,222.5,230,240,,240,,,,,,240
3,Daniel Andrys,Cze,M,B,Raw,30,108.3,Open,110,,,,,,210,220,222.5,,222.5,,,,,,222.5
4,Daniel Boss,Sui,M,B,Raw,35,110,Open,110,,,,,,210,217.5,222.5,,222.5,,,,,,222.5
5,Damian Rataj,Pol,M,B,Raw,24,105.7,Open,110,,,,,,210,215,-220,,215,,,,,,215
6,Zoran Kopic,Srb,M,B,Raw,25,109.6,Open,110,,,,,,210,215,-220,,215,,,,,,215
7,Pouya Jalilian,Aut,M,B,Raw,30,110,Open,110,,,,,,165,175,-180,,175,,,,,,175
1,Jaroslav Vdovychenko,Ukr,M,B,Raw,33,114.3,Open,125,,,,,,250,252,255.5,,255.5,,,,,,255.5
2,Pavel Hahn,Cze,M,B,Raw,24,115.6,Open,125,,,,,,240,250,252.5,,252.5,,,,,,252.5
3,Burak Kacar,Ger,M,B,Raw,27,114,Open,125,,,,,,230,250.5,-255,,250.5,,,,,,250.5
4,Juraj Grigel,Svk,M,B,Raw,24,111.7,Open,125,,,,,,205,215,220,,220,,,,,,220
5,Patrik Loza,Cze,M,B,Raw,32,113.6,Open,125,,,,,,210,215,220,,220,,,,,,220
6,Vlastimil Rúckl,Cze,M,B,Raw,33,113.7,Open,125,,,,,,-160,165,175,,175,,,,,,175
7,Bence Nagy,Hun,M,B,Raw,32,113.9,Open,125,,,,,,160,167.5,-172.5,,167.5,,,,,,167.5
1,Farik Muhić,Bih,M,B,Raw,25,133.8,Open,140,,,,,,220,235,-240,,235,,,,,,235
2,Milan Smiljanic,Srb,M,B,Raw,39,134.5,Open,140,,,,,,230,-235,-237.5,,230,,,,,,230
3,Bartosz Chałaj,Pol,M,B,Raw,29,127.3,Open,140,,,,,,190,202.5,,,202.5,,,,,,202.5
4,Tamás Máté,Hun,M,B,Raw,28,134.7,Open,140,,,,,,190,-197.5,,,190,,,,,,190
5,Petr Kohout,Cze,M,B,Raw,33,125.3,Open,140,,,,,,182.5,-200,-200,,182.5,,,,,,182.5
1,Denis Vlček,Cze,M,B,Raw,26,159.8,Open,140+,,,,,,200,-210,212.5,,212.5,,,,,,212.5
DQ,Rade Savic,Srb,M,B,Raw,33,150.5,Open,140+,,,,,,-270,-270,-270,,,,,,,,
1,Stefan Gneist,Ger,M,B,Raw,36,79.5,Submaster,82.5,,,,,,120,132.5,135,,135,,,,,,135
1,Petr Novák,Cze,M,B,Raw,39,89.7,Submaster,90,,,,,,170,175,-180,,175,,,,,,175
2,Konrad Piaszczyk,Pol,M,B,Raw,39,89.1,Submaster,90,,,,,,150,160,170,,170,,,,,,170
3,Andrzej Juraszek,Pol,M,B,Raw,39,90,Submaster,90,,,,,,150,157.5,-160,,157.5,,,,,,157.5
1,Mahir Moro,Bih,M,B,Raw,36,109.2,Submaster,110,,,,,,216,222.5,227.5,230,227.5,,,,,,227.5
1,Irfan Muhić,Bih,M,B,Raw,39,124,Submaster,125,,,,,,240,245,247.5,-250,247.5,,,,,,247.5
2,Arkadiusz Herodowicz,Pol,M,B,Raw,35,120.3,Submaster,125,,,,,,230,241,246,,246,,,,,,246
3,Csaba Miklós Lengyel,Hun,M,B,Raw,39,120.8,Submaster,125,,,,,,215,-225,-225,,215,,,,,,215
4,Jozef Harandza,Svk,M,B,Raw,35,116.4,Submaster,125,,,,,,200,207.5,-215,,207.5,,,,,,207.5
1,Peter Hulin,Ger,M,B,Raw,37,131.9,Submaster,140,,,,,,245,250,252.5,,252.5,,,,,,252.5
2,Michal Čorba,Svk,M,B,Raw,37,128.5,Submaster,140,,,,,,170,180,182.5,,182.5,,,,,,182.5
1,Mirza Muratović,Bih,M,B,Raw,35,143.2,Submaster,140+,,,,,,220,230,235,-241,235,,,,,,235
2,Tomasz Węgliński,Pol,M,B,Raw,39,140.1,Submaster,140+,,,,,,202.5,212.5,220,,220,,,,,,220
1,Enri Gregorčič,Slo,M,B,Raw,41,74,M40-44,75,,,,,,140,145,,,145,,,,,,145
1,Lajos Cseh,Hun,M,B,Raw,43,81.6,M40-44,82.5,,,,,,162.5,172.5,-177.5,,172.5,,,,,,172.5
1,István Szeifert,Hun,M,B,Raw,40,88,M40-44,90,,,,,,162.5,-167.5,170,,170,,,,,,170
2,Mario Auer,Aut,M,B,Raw,44,89.3,M40-44,90,,,,,,140,150,157.5,,157.5,,,,,,157.5
3,Zoltán Megyeri,Hun,M,B,Raw,42,84.1,M40-44,90,,,,,,150,155,-157.5,,155,,,,,,155
4,Roman Oborný,Cze,M,B,Raw,42,87.8,M40-44,90,,,,,,140,147.5,150,,150,,,,,,150
1,Petr Maceášik,Cze,M,B,Raw,42,96.6,M40-44,100,,,,,,200,210,-215,,210,,,,,,210
2,Marek Bouchal,Cze,M,B,Raw,43,99.5,M40-44,100,,,,,,185,190,,,190,,,,,,190
3,Štefan Sokoly,Svk,M,B,Raw,41,97.2,M40-44,100,,,,,,170,180,182.5,,182.5,,,,,,182.5
4,Péter Belme,Hun,M,B,Raw,42,99.2,M40-44,100,,,,,,170,175,-182.5,,175,,,,,,175
5,Martin Horák,Cze,M,B,Raw,40,97.5,M40-44,100,,,,,,150,165,-172.5,,165,,,,,,165
1,Vlastimil Kužel,Cze,M,B,Raw,40,109.8,M40-44,110,,,,,,230,,,,230,,,,,,230
2,Vladimír Karchňák,Svk,M,B,Raw,41,109.1,M40-44,110,,,,,,185,-190,192.5,,192.5,,,,,,192.5
3,Tamás Pfeifenrót,Hun,M,B,Raw,44,109,M40-44,110,,,,,,190,-200,-200,,190,,,,,,190
1,Vladimír Kadlec,Cze,M,B,Raw,44,120.6,M40-44,125,,,,,,195,-205,205,,205,,,,,,205
2,Rudolf Hlavsa,Cze,M,B,Raw,42,123.9,M40-44,125,,,,,,190,-195,-195,,190,,,,,,190
3,Björn Pscherer,Ger,M,B,Raw,42,124.1,M40-44,125,,,,,,170,187.5,-192.5,,187.5,,,,,,187.5
4,Tomasz Domaradzki,Pol,M,B,Raw,40,112.9,M40-44,125,,,,,,175,185,-190,,185,,,,,,185
5,Matthias Hörning,Ger,M,B,Raw,42,113.8,M40-44,125,,,,,,165,172.5,177.5,,177.5,,,,,,177.5
1,Miloš Šnajdr,Svk,M,B,Raw,40,134.7,M40-44,140,,,,,,220,230,-235,,230,,,,,,230
2,Zbigniew Drewniak,Pol,M,B,Raw,44,128.6,M40-44,140,,,,,,182.5,187.5,190,,190,,,,,,190
3,Zsolt Viktór Szabó,Hun,M,B,Raw,41,135.4,M40-44,140,,,,,,180,185,190,,190,,,,,,190
4,Ferenc Som,Hun,M,B,Raw,42,126,M40-44,140,,,,,,-180,-180,180,,180,,,,,,180
1,Mirosław Hendzel,Pol,M,B,Raw,43,145.8,M40-44,140+,,,,,,180,200,205,,205,,,,,,205
2,Krzysztof Halczyk,Pol,M,B,Raw,42,140.3,M40-44,140+,,,,,,175,182.5,-187.5,,182.5,,,,,,182.5
1,Norbert Hajas,Hun,M,B,Raw,45,74.6,M45-49,75,,,,,,150,160,168,,168,,,,,,168
1,Bogdan Kropidłowski,Pol,M,B,Raw,46,80.9,M45-49,82.5,,,,,,170,-180.5,180.5,-187.5,180.5,,,,,,180.5
1,Franitšek Sajko,Svk,M,B,Raw,46,87.6,M45-49,90,,,,,,150,160,165,,165,,,,,,165
2,Tám Nguyen,Svk,M,B,Raw,47,85,M45-49,90,,,,,,145,-160,160,,160,,,,,,160
3,Vladan Zapletal,Cze,M,B,Raw,46,85.8,M45-49,90,,,,,,145,-152.5,-152.5,,145,,,,,,145
1,Hovhannes Yazichyan,Pol,M,B,Raw,46,95.9,M45-49,100,,,,,,200,206,210,,210,,,,,,210
2,Anton Landiga,Cze,M,B,Raw,49,97.3,M45-49,100,,,,,,150,-160,-160,,150,,,,,,150
3,Steffen Reisbach,Ger,M,B,Raw,49,90.1,M45-49,100,,,,,,140,-145,-145,,140,,,,,,140
1,Joachim Krebs,Aut,M,B,Raw,49,104.8,M45-49,110,,,,,,160,175,-177.5,,175,,,,,,175
2,Radek Lešiga,Cze,M,B,Raw,46,110,M45-49,110,,,,,,-175,175,-183.5,,175,,,,,,175
3,David Gracík,Cze,M,B,Raw,48,100.1,M45-49,110,,,,,,135,140,145,,145,,,,,,145
1,Václav Mareš,Cze,M,B,Raw,49,120,M45-49,125,,,,,,185,200,210,,210,,,,,,210
2,Josef Neuman,Cze,M,B,Raw,45,113.7,M45-49,125,,,,,,170,180,-182.5,,180,,,,,,180
3,Roman Fabian,Cze,M,B,Raw,48,113.4,M45-49,125,,,,,,130,140,145,,145,,,,,,145
1,Erik Susztay,Svk,M,B,Raw,45,130.7,M45-49,140,,,,,,210,222.5,-230,,222.5,,,,,,222.5
2,Benny Ferander,Swe,M,B,Raw,45,131.1,M45-49,140,,,,,,185,192.5,-200,,192.5,,,,,,192.5
1,Grzegorz Kantor,Pol,M,B,Raw,45,141.6,M45-49,140+,,,,,,175,182.5,-187.5,,182.5,,,,,,182.5
1,Josef Peška,Cze,M,B,Raw,52,74,M50-54,75,,,,,,130,-137.5,-137.5,,130,,,,,,130
2,László Göbölös,Hun,M,B,Raw,53,72.9,M50-54,75,,,,,,97.5,-105,107.5,,107.5,,,,,,107.5
1,István Gyuricska Jr,Hun,M,B,Raw,50,81.7,M50-54,82.5,,,,,,162.5,167.5,172,173.5,172,,,,,,172
2,Milan Suk,Cze,M,B,Raw,54,80,M50-54,82.5,,,,,,160,170,171,-173.5,171,,,,,,171
3,Berhard Schmid,Ger,M,B,Raw,53,78.6,M50-54,82.5,,,,,,100,102.5,105,,105,,,,,,105
1,László Kupcsik,Hun,M,B,Raw,50,89.7,M50-54,90,,,,,,200,212.5,220,,220,,,,,,220
2,Arkady Mazur,Ger,M,B,Raw,51,89.6,M50-54,90,,,,,,130,135,140,,140,,,,,,140
1,László Bugyi,Hun,M,B,Raw,53,97.1,M50-54,100,,,,,,170,-180,-180,,170,,,,,,170
2,Zsolt Mohácsi,Hun,M,B,Raw,51,98.7,M50-54,100,,,,,,155,162.5,-170.5,,162.5,,,,,,162.5
3,Helmut Silberbauer,Aut,M,B,Raw,52,95.1,M50-54,100,,,,,,140,145,-155,,145,,,,,,145
1,Sándor Szabó,Hun,M,B,Raw,54,109.6,M50-54,110,,,,,,162.5,167.5,170,,170,,,,,,170
2,Attila Heizer,Hun,M,B,Raw,51,106,M50-54,110,,,,,,160,165,167.5,,167.5,,,,,,167.5
3,Ladislav Beňo,Svk,M,B,Raw,52,108.8,M50-54,110,,,,,,135,140,-145,,140,,,,,,140
4,Imre Nagy,Hun,M,B,Raw,54,103.6,M50-54,110,,,,,,127.5,135,-145,,135,,,,,,135
1,Andreas Behrends,Ger,M,B,Raw,51,120.1,M50-54,125,,,,,,175,182.5,185.5,,185.5,,,,,,185.5
DQ,Jiří Hájek,Cze,M,B,Raw,54,123,M50-54,125,,,,,,-175,-180,-186,,,,,,,,
1,Tim Moon,Usa,M,B,Raw,53,133,M50-54,140,,,,,,210,230,245,,245,,,,,,245
2,László Vass,Hun,M,B,Raw,53,132.7,M50-54,140,,,,,,180,-187.5,187.5,,187.5,,,,,,187.5
3,Csaba Molnár,Hun,M,B,Raw,53,125.3,M50-54,140,,,,,,180,-185,-185,,180,,,,,,180
4,Dirk Lauber,Ger,M,B,Raw,53,133.9,M50-54,140,,,,,,155,165,-175,,165,,,,,,165
1,Jürgen Dziergwa,Ger,M,B,Raw,59,66.7,M55-59,67.5,,,,,,102.5,110,112.5,,112.5,,,,,,112.5
1,József Németh,Hun,M,B,Raw,59,74,M55-59,75,,,,,,107.5,-112.5,-112.5,,107.5,,,,,,107.5
1,Uwe Herfort,Ger,M,B,Raw,57,76.1,M55-59,82.5,,,,,,130,135,140,143,140,,,,,,140
2,Reiner Krieger,Ger,M,B,Raw,57,81.2,M55-59,82.5,,,,,,105,110,-112.5,,110,,,,,,110
1,Hartmut Ewert,Ger,M,B,Raw,58,83.7,M55-59,90,,,,,,130,140,-142.5,,140,,,,,,140
1,Falk Steinkopf,Ger,M,B,Raw,56,96,M55-59,100,,,,,,130,-135,135,,135,,,,,,135
2,Roman Raczykowski,Pol,M,B,Raw,56,98.2,M55-59,100,,,,,,122.5,125,-130,,125,,,,,,125
3,Milan Kobr,Cze,M,B,Raw,58,100,M55-59,100,,,,,,115,-122.5,-122.5,,115,,,,,,115
1,Joachim Flett,Ger,M,B,Raw,59,102.6,M55-59,110,,,,,,145,155,160,,160,,,,,,160
1,Béla Nagy,Hun,M,B,Raw,56,111.2,M55-59,125,,,,,,150,-155,157.5,,157.5,,,,,,157.5
2,Igor Kurotchenko,Rus,M,B,Raw,55,111.1,M55-59,125,,,,,,140,142.5,155,160,155,,,,,,155
1,Antoni Kaliński,Pol,M,B,Raw,64,67.1,M60-64,67.5,,,,,,100,107.5,-113,,107.5,,,,,,107.5
1,Zbigniew Koper,Pol,M,B,Raw,64,74.1,M60-64,75,,,,,,95,105,-110,,105,,,,,,105
1,Karel Schoř,Cze,M,B,Raw,62,82,M60-64,82.5,,,,,,125,135,140,,140,,,,,,140
2,Mieczysłąw Maczka,Ger,M,B,Raw,63,81.6,M60-64,82.5,,,,,,100,107.5,112.5,,112.5,,,,,,112.5
1,Frank Kutzsch,Ger,M,B,Raw,61,89.8,M60-64,90,,,,,,150,155,160,,160,,,,,,160
2,László Kozma,Hun,M,B,Raw,60,88.1,M60-64,90,,,,,,125,130,132.5,,132.5,,,,,,132.5
1,József Sztanke,Hun,M,B,Raw,63,95.7,M60-64,100,,,,,,165,173,-175,,173,,,,,,173
2,Kurt Schoula,Ger,M,B,Raw,64,99.1,M60-64,100,,,,,,155,160,-175,,160,,,,,,160
3,Géza Attila Bognár,Hun,M,B,Raw,63,91.2,M60-64,100,,,,,,115,120,-122.5,,120,,,,,,120
4,Milan Francuz,Cze,M,B,Raw,63,95.2,M60-64,100,,,,,,-110,112.5,-115,,112.5,,,,,,112.5
1,Péter Károly Kis,Hun,M,B,Raw,61,108.6,M60-64,110,,,,,,130,135,-140,,135,,,,,,135
2,Eduard Weber,Ger,M,B,Raw,60,102.9,M60-64,110,,,,,,120,130,-137.5,,130,,,,,,130
1,István Eszenyi,Hun,M,B,Raw,60,115.2,M60-64,125,,,,,,160,165,-170,,165,,,,,,165
2,Klaus Grosser,Ger,M,B,Raw,62,114.7,M60-64,125,,,,,,140,150,,,150,,,,,,150
1,Steffen Burkhard,Ger,M,B,Raw,67,72.3,M65-69,75,,,,,,85,90,-95,,90,,,,,,90
1,Gerd Müller,Ger,M,B,Raw,65,78.1,M65-69,82.5,,,,,,120,131.5,132.5,135,132.5,,,,,,132.5
1,Ernő Ujvári,Hun,M,B,Raw,69,88,M65-69,90,,,,,,100,110,-112.5,,110,,,,,,110
1,Herbert Kalischke,Ger,M,B,Raw,69,98.3,M65-69,100,,,,,,90,105,115,,115,,,,,,115
1,Ulrich Vetter,Ger,M,B,Raw,65,108.4,M65-69,110,,,,,,142.5,147.5,152.5,157.5,152.5,,,,,,152.5
2,Ján Slovík,Svk,M,B,Raw,66,107.6,M65-69,110,,,,,,80,90,-95,,90,,,,,,90
1,Josef Hakl,Cze,M,B,Raw,67,117.3,M65-69,125,,,,,,160,-167.5,,,160,,,,,,160
1,Andreas Vigh,Ger,M,B,Raw,73,66.6,M70-74,67.5,,,,,,77.5,81.5,82.5,,82.5,,,,,,82.5
1,György Fonyódi,Hun,M,B,Raw,74,70.8,M70-74,75,,,,,,72.5,77.5,-80,,77.5,,,,,,77.5
2,Ladislav Špaček,Cze,M,B,Raw,70,74.9,M70-74,75,,,,,,70,-77.5,-80,,70,,,,,,70
1,František Esser,Cze,M,B,Raw,71,79.6,M70-74,82.5,,,,,,90,100,,,100,,,,,,100
1,Miroslaw Orłowski,Pol,M,B,Raw,73,97.1,M70-74,100,,,,,,135,141,143,,143,,,,,,143
2,Joachim Eulenstein,Ger,M,B,Raw,70,94.2,M70-74,100,,,,,,100,110,115,,115,,,,,,115
1,Erwin Trichlin,Aut,M,B,Raw,78,63.1,M75-79,67.5,,,,,,80,85,90,-95.5,90,,,,,,90
2,Gerd Cedel,Ger,M,B,Raw,75,67.4,M75-79,67.5,,,,,,80,-82.5,-82.5,,80,,,,,,80
1,Hansjürgen Kuhlmey,Ger,M,B,Raw,76,123.8,M75-79,125,,,,,,115,120,122.5,-125,122.5,,,,,,122.5
1,Günther Wachs,Ger,M,B,Raw,80,73.7,M+80,75,,,,,,-60,60,65,,65,,,,,,65
1,Kateřina Hrušková,Cze,F,D,Multi-ply,38,65.6,Submaster,67.5,,,,,,,,,,,115,127.5,132.5,135,132.5,132.5
1,Max Glok,Ger,M,D,Multi-ply,16,89.8,T16-17,90,,,,,,,,,,,145,165,180,,180,180
1,Jiří Boček,Cze,M,D,Multi-ply,19,74.9,T18-19,75,,,,,,,,,,,210,230,245,,245,245
1,Dennis Glok,Ger,M,D,Multi-ply,19,82.5,T18-19,82.5,,,,,,,,,,,160,180,195,,195,195
1,Konrad Majocha,Pol,M,D,Multi-ply,19,83.6,T18-19,90,,,,,,,,,,,205,215,225,227.5,225,225
1,Ernő Eck Jr,Hun,M,D,Multi-ply,23,98,Junior,100,,,,,,,,,,,225,237.5,240,,240,240
1,Martin Homola,Cze,M,D,Multi-ply,23,122.5,Junior,125,,,,,,,,,,,340,362.5,380,,380,380
1,Niclas Friberg,Swe,M,D,Multi-ply,43,89.8,M40-44,90,,,,,,,,,,,270,280,285,,285,285
2,Markus Rücker,Ger,M,D,Multi-ply,43,83.1,M40-44,90,,,,,,,,,,,265,275,-285,,275,275
1,Norbert Hablicsek,Hun,M,D,Multi-ply,43,109.1,M40-44,110,,,,,,,,,,,252.5,277.5,-282.5,,277.5,277.5
2,Sirko Petermann,Ger,M,D,Multi-ply,40,110,M40-44,110,,,,,,,,,,,252.5,-277.5,-282.5,,252.5,252.5
1,Ondrej Hudák,Svk,M,D,Multi-ply,42,116.7,M40-44,125,,,,,,,,,,,280,305,,,305,305
1,Dirk Schumann,Ger,M,D,Multi-ply,49,74.5,M45-49,75,,,,,,,,,,,200,210,-220,,210,210
1,Csaba Simon,Hun,M,D,Multi-ply,49,81.1,M45-49,82.5,,,,,,,,,,,230,250,260,,260,260
1,Steffen Reisbach,Ger,M,D,Multi-ply,49,88.8,M45-49,90,,,,,,,,,,,210,-220,,,210,210
1,Josef Pangerl,Ger,M,D,Multi-ply,49,107.8,M45-49,110,,,,,,,,,,,220,240,-250,,240,240
1,Ernő Eck,Hun,M,D,Multi-ply,45,110.1,M45-49,125,,,,,,,,,,,260,275,-282.5,,275,275
1,Karol Kornel Repiský,Svk,M,D,Multi-ply,53,124.5,M50-54,125,,,,,,,,,,,240,250,-260,,250,250
1,Dirk Lauber,Ger,M,D,Multi-ply,53,133.1,M50-54,140,,,,,,,,,,,250,285,-305,-305,285,285
1,Henry Trost,Ger,M,D,Multi-ply,58,88.5,M55-59,90,,,,,,,,,,,180,195,210,,210,210
1,Lothar Pritzl,Ger,M,D,Multi-ply,58,92.2,M55-59,100,,,,,,,,,,,175,192.5,200,,200,200
1,Mieczysłąw Maczka,Ger,M,D,Multi-ply,63,81.1,M60-64,82.5,,,,,,,,,,,120,130,140,,140,140
1,Wiesław Wróbel,Pol,M,D,Multi-ply,60,98.2,M60-64,100,,,,,,,,,,,230,240,250,255,250,250
1,Josef Sussbauer,Ger,M,D,Multi-ply,61,102,M60-64,110,,,,,,,,,,,210,220,-235,,220,220
1,Stefan Sochański,Pol,M,D,Multi-ply,68,89.3,M65-69,90,,,,,,,,,,,215,235,,,235,235
1,Ladislau Kiss,Hun,M,D,Multi-ply,69,95,M65-69,100,,,,,,,,,,,240,250,260,270,260,260
1,Jaroslav Tomanec,Cze,M,D,Multi-ply,74,82.5,M70-74,82.5,,,,,,,,,,,145,152,155,,155,155
1,Gerd Meyerhofer,Ger,M,D,Multi-ply,79,76.9,M75-79,82.5,,,,,,,,,,,85,90,95,,95,95
1,Milan Grozdanović,Srb,M,D,Multi-ply,28,73.8,Open,75,,,,,,,,,,,270,-277.5,-280,,270,270
1,Ivan Lazor,Svk,M,D,Multi-ply,26,106.8,Open,110,,,,,,,,,,,250,260,270,,270,270
2,Ondřej Kratochvíl,Cze,M,D,Multi-ply,32,100.5,Open,110,,,,,,,,,,,-250,250,-270,,250,250
1,Peter Pintér,Svk,M,D,Multi-ply,32,118.6,Open,125,,,,,,,,,,,270,-280,280,,280,280
1,Jan Sylvester,Ger,M,D,Multi-ply,32,126.7,Open,140,,,,,,,,,,,255,-267.5,270,,270,270
1,László Eck,Hun,M,D,Multi-ply,39,87.5,Submaster,90,,,,,,,,,,,255,-260,-260,,255,255
1,Martin Malínek,Cze,M,D,Multi-ply,37,130.1,Submaster,140,,,,,,,,,,,300,320,-330,,320,320
1,Gabriela Gacek,Pol,F,D,Raw,19,60.7,T18-19,67.5,,,,,,,,,,,105,115,-120,,115,115
1,Hana Slúková,Cze,F,D,Raw,23,67.1,Junior,67.5,,,,,,,,,,,140,-147.5,147.5,-155,147.5,147.5
2,Renata Zapała,Pol,F,D,Raw,23,67.4,Junior,67.5,,,,,,,,,,,120,130,-140,,130,130
1,Mónika Bazsó,Hun,F,D,Raw,43,67,M40-44,67.5,,,,,,,,,,,170,182.5,-188,,182.5,182.5
1,Beata Kowalska,Pol,F,D,Raw,44,72.9,M40-44,75,,,,,,,,,,,120,132.5,-137.5,138,132.5,132.5
2,Sandra Tesmer,Ger,F,D,Raw,41,70,M40-44,75,,,,,,,,,,,95,105,-110,,105,105
1,Éva Manzera,Hun,F,D,Raw,41,81.8,M40-44,82.5,,,,,,,,,,,140,155,165,,165,165
1,Elvira Gerland,Ger,F,D,Raw,46,60.5,M45-49,67.5,,,,,,,,,,,80,90,95,,95,95
1,Krystyna Puzio,Pol,F,D,Raw,52,96,M50-54,90+,,,,,,,,,,,140,150,-155,,150,150
1,Ingrid Cedel,Ger,F,D,Raw,70,61,M70-74,67.5,,,,,,,,,,,90,95,-100,,95,95
1,Martina Novotná,Cze,F,D,Raw,26,55.6,Open,56,,,,,,,,,,,115,125,-135,,125,125
1,Jana Šimková,Cze,F,D,Raw,29,59.6,Open,60,,,,,,,,,,,125,-135,-135,,125,125
2,Joanna Gawron,Pol,F,D,Raw,24,59.1,Open,60,,,,,,,,,,,90,-105,105,,105,105
1,Patrycja Sekuła,Pol,F,D,Raw,27,64.9,Open,67.5,,,,,,,,,,,90,110,-112.5,,110,110
1,Martina Kis,Hun,F,D,Raw,24,73.5,Open,75,,,,,,,,,,,135,-145,-145,,135,135
1,Hana Palacká,Cze,F,D,Raw,39,51.2,Submaster,52,,,,,,,,,,,80,90,-100,,90,90
1,Kateřina Hrušková,Cze,F,D,Raw,38,65.6,Submaster,67.5,,,,,,,,,,,100,115.5,-122.5,,115.5,115.5
1,Miroslav Dvořák,Cze,M,D,Raw,16,74.9,T16-17,75,,,,,,,,,,,170,185,195,-200,195,195
1,Patrik Pikeš,Cze,M,D,Raw,17,82.2,T16-17,82.5,,,,,,,,,,,-210,210,-225,,210,210
2,Michal Hudák,Svk,M,D,Raw,16,77,T16-17,82.5,,,,,,,,,,,170,-185,185,,185,185
1,Max Glok,Ger,M,D,Raw,16,89.8,T16-17,90,,,,,,,,,,,145,160,175,,175,175
1,Eric Kruse,Ger,M,D,Raw,16,99.4,T16-17,100,,,,,,,,,,,220,232.5,242.5,,242.5,242.5
1,Huba Hablicsek,Hun,M,D,Raw,19,56.7,T18-19,60,,,,,,,,,,,140,150,160,-165,160,160
1,Adrián Untermayer,Svk,M,D,Raw,18,79.5,T18-19,82.5,,,,,,,,,,,210,-220,-220,,210,210
2,Dennis Glok,Ger,M,D,Raw,19,82.5,T18-19,82.5,,,,,,,,,,,160,180,200,,200,200
1,Marko Trivković,Bih,M,D,Raw,18,107,T18-19,110,,,,,,,,,,,-260,260,-281,,260,260
1,Ron Krieg,Ger,M,D,Raw,19,136.8,T18-19,140,,,,,,,,,,,230,240,250,,250,250
1,Lukáš Barányi,Svk,M,D,Raw,22,73.3,Junior,75,,,,,,,,,,,180,190,195,,195,195
2,Julian Scharpf,Aut,M,D,Raw,22,74.8,Junior,75,,,,,,,,,,,160,180,192.5,,192.5,192.5
1,Csongor Szvetlik,Hun,M,D,Raw,20,78.6,Junior,82.5,,,,,,,,,,,211,220,-225,,220,220
1,Adam Kafka,Cze,M,D,Raw,22,88.6,Junior,90,,,,,,,,,,,220,-240,-240,,220,220
2,Robin Hejl,Cze,M,D,Raw,20,84.6,Junior,90,,,,,,,,,,,150,170,180,,180,180
1,Tomáš Kunc,Cze,M,D,Raw,22,100,Junior,100,,,,,,,,,,,-260,260,271,,271,271
2,Ondřej Podolník,Cze,M,D,Raw,21,96,Junior,100,,,,,,,,,,,230,-240,250,,250,250
3,Helmut Silberbauer,Aut,M,D,Raw,21,94.8,Junior,100,,,,,,,,,,,180,200,-210,,200,200
1,Stefan Strasser,Ger,M,D,Raw,22,106.1,Junior,110,,,,,,,,,,,300,-320,,,300,300
2,Péter Csombor,Hun,M,D,Raw,21,104.2,Junior,110,,,,,,,,,,,290,-310,-310,,290,290
1,Zoltán Borbíró,Hun,M,D,Raw,22,115.2,Junior,125,,,,,,,,,,,310,320,325,,325,325
1,Jan Všetička,Cze,M,D,Raw,25,66.6,Open,67.5,,,,,,,,,,,170,190,195,,195,195
1,Ladislav Pasecký,Cze,M,D,Raw,32,74.7,Open,75,,,,,,,,,,,230,-250,-250,,230,230
1,Zbyněk Dušánek,Cze,M,D,Raw,29,75.1,Open,82.5,,,,,,,,,,,190,200,215,,215,215
1,Miroslav Vítek,Cze,M,D,Raw,34,89.4,Open,90,,,,,,,,,,,272.5,-290,-290,,272.5,272.5
2,Ladislav Docenko,Cze,M,D,Raw,31,84.2,Open,90,,,,,,,,,,,240,-252.5,-252.5,,240,240
1,Szabolcs Balázs,Hun,M,D,Raw,29,100.2,Open,110,,,,,,,,,,,300,312.5,322.5,,322.5,322.5
2,Juraj Grigel,Svk,M,D,Raw,24,109,Open,110,,,,,,,,,,,300,312.5,-320,,312.5,312.5
3,Ondřej Kratochvíl,Cze,M,D,Raw,32,100.5,Open,110,,,,,,,,,,,-250,250,-285,,250,250
1,Samir Ademović,Bih,M,D,Raw,32,124.5,Open,125,,,,,,,,,,,300,312.5,-317.5,,312.5,312.5
2,Burak Kacar,Ger,M,D,Raw,27,114,Open,125,,,,,,,,,,,290,-310,-315,,290,290
3,Richard Gensch,Ger,M,D,Raw,32,113.3,Open,125,,,,,,,,,,,220,-230,-240,,220,220
1,Pavel Balážik,Svk,M,D,Raw,38,54.7,Submaster,56,,,,,,,,,,,125,135,145,,145,145
1,Stefan Gneist,Ger,M,D,Raw,36,78.4,Submaster,82.5,,,,,,,,,,,150,160,-170,,160,160
1,Jaromír Šruc,Cze,M,D,Raw,36,93,Submaster,100,,,,,,,,,,,260,280,-300,,280,280
1,Klaus Steinbock,Aut,M,D,Raw,36,105.2,Submaster,110,,,,,,,,,,,280,300,-320,,300,300
1,Matthias Große,Ger,M,D,Raw,39,117.8,Submaster,125,,,,,,,,,,,260,275,-283,-283,275,275
2,Jozef Harandza,Svk,M,D,Raw,35,116.4,Submaster,125,,,,,,,,,,,250,-267.5,-275,,250,250
1,Ferenc Szenti,Hun,M,D,Raw,39,128.8,Submaster,140,,,,,,,,,,,275,285,293,,293,293
1,Grzegorz Drewniany,Pol,M,D,Raw,40,99.1,M40-44,100,,,,,,,,,,,230,245,-252.5,,245,245
2,Martin Horák,Cze,M,D,Raw,40,97.5,M40-44,100,,,,,,,,,,,220,230,-240,,230,230
3,Roman Zigo,Cze,M,D,Raw,44,98.2,M40-44,100,,,,,,,,,,,200,215,220,,220,220
1,Norbert Hablicsek,Hun,M,D,Raw,43,109.1,M40-44,110,,,,,,,,,,,240,260,276,,276,276
1,Björn Pscherer,Ger,M,D,Raw,42,124.2,M40-44,125,,,,,,,,,,,260,275,285,,285,285
2,Tibor Szántó,Hun,M,D,Raw,41,114.3,M40-44,125,,,,,,,,,,,260,270,-282.5,,270,270
DQ,Matthias Hörning,Ger,M,D,Raw,42,113.4,M40-44,125,,,,,,,,,,,-260,-265,-265,,,
1,Miloš Šnajdr,Svk,M,D,Raw,40,136.4,M40-44,140,,,,,,,,,,,320,350,360,,360,360
2,Zsolt Szabó,Hun,M,D,Raw,41,135.2,M40-44,140,,,,,,,,,,,280,300,-310,,300,300
1,Dirk Schumann,Ger,M,D,Raw,49,74.5,M45-49,75,,,,,,,,,,,165,175,185,,185,185
1,Csaba Simon,Hun,M,D,Raw,49,81.1,M45-49,82.5,,,,,,,,,,,230,-250,250,,250,250
1,Franz Ritzer,Ger,M,D,Raw,45,104.5,M45-49,110,,,,,,,,,,,-275,275,290,,290,290
2,Jan Bachmann,Cze,M,D,Raw,49,109.7,M45-49,110,,,,,,,,,,,180,210,-225,,210,210
1,Robert Nemś,Pol,M,D,Raw,48,112.7,M45-49,125,,,,,,,,,,,240,255,270,,270,270
2,Tibor Manzera,Hun,M,D,Raw,49,111.3,M45-49,125,,,,,,,,,,,190,200,210,,210,210
3,Roman Fabian,Cze,M,D,Raw,48,111.6,M45-49,125,,,,,,,,,,,-150,150,182.5,,182.5,182.5
1,Reiko Kruse,Ger,M,D,Raw,45,126.6,M45-49,140,,,,,,,,,,,260,270,280,,280,280
1,Björn Tesmer,Ger,M,D,Raw,53,74.4,M50-54,75,,,,,,,,,,,160,170,180,182.5,180,180
1,Helmut Silberbauer,Aut,M,D,Raw,52,94.5,M50-54,100,,,,,,,,,,,230,250,261,,261,261
2,Kamran Alizada,Aze,M,D,Raw,52,98.5,M50-54,100,,,,,,,,,,,180,200,-210,,200,200
1,Tibor Gejdoš,Svk,M,D,Raw,53,103.6,M50-54,110,,,,,,,,,,,225,240,252.5,,252.5,252.5
1,Robert Baumann,Ger,M,D,Raw,54,122.7,M50-54,125,,,,,,,,,,,270,-285,300,,300,300
1,Sejfo Šehović,Bih,M,D,Raw,58,71.8,M55-59,75,,,,,,,,,,,210,225,-232.5,,225,225
1,Ladislav Pasecký,Cze,M,D,Raw,58,89.1,M55-59,90,,,,,,,,,,,210,230,-240,,230,230
2,Henry Trost,Ger,M,D,Raw,58,88.5,M55-59,90,,,,,,,,,,,170,185,190,,190,190
1,Lothar Pritzl,Ger,M,D,Raw,58,92.2,M55-59,100,,,,,,,,,,,175,182.5,187.5,,187.5,187.5
1,Janusz Witkowski,Pol,M,D,Raw,57,109.9,M55-59,110,,,,,,,,,,,190,200,212.5,,212.5,212.5
1,Zbigniew Koper,Pol,M,D,Raw,64,75,M60-64,75,,,,,,,,,,,150,160,167.5,,167.5,167.5
1,Karel Schoř,Cze,M,D,Raw,62,82,M60-64,82.5,,,,,,,,,,,180,-190,190,-200,190,190
2,Mieczysłąw Maczka,Ger,M,D,Raw,63,81.1,M60-64,82.5,,,,,,,,,,,120,130,140,,140,140
1,Frank Kutzsch,Ger,M,D,Raw,61,89.9,M60-64,90,,,,,,,,,,,225,-243,243,246,243,243
1,Wiesław Wróbel,Pol,M,D,Raw,60,98.2,M60-64,100,,,,,,,,,,,220,242.5,250,,250,250
1,Vladimír Bátik,Svk,M,D,Raw,64,111,M60-64,125,,,,,,,,,,,182.5,200,210,,210,210
1,Ryszard Śliwiński,Pol,M,D,Raw,67,73.9,M65-69,75,,,,,,,,,,,140,152.5,161,,161,161
1,Stefan Sochański,Pol,M,D,Raw,68,89.3,M65-69,90,,,,,,,,,,,180,200,-220,,200,200
DQ,Herbert Kalischke,Ger,M,D,Raw,69,98.7,M65-69,100,,,,,,,,,,,-165,-165,-165,,,
1,Klement Fekete,Svk,M,D,Raw,65,115.4,M65-69,125,,,,,,,,,,,200,220,-227.5,,220,220
1,Gerd Cedel,Ger,M,D,Raw,75,66.7,M75-79,67.5,,,,,,,,,,,125,130,-135,135,130,130
1,Gerd Meyerhofer,Ger,M,D,Raw,79,76.9,M75-79,82.5,,,,,,,,,,,85,90,95,,95,95
1,Sabrina Pauli,Ger,F,SBD,Multi-ply,16,63.4,T16-17,67.5,-50,50,-60,,50,40,47.5,-55,,47.5,70,80,90,,90,187.5
1,Erika Buzinkayová,Svk,F,SBD,Multi-ply,22,50.5,J,52,-130,130,140,,140,72.5,-80,80,,80,110,120,-130,,120,340
1,Elbisa Zehethofer,Aut,F,SBD,Multi-ply,44,51.9,M40-44,52,130,140,-150,,140,65,72.5,-80,,72.5,140,150,-152.5,,150,362.5
1,Sabine Kraus,Ger,F,SBD,Multi-ply,49,77.3,M45-49,82.5,145,-160,160,,160,72.5,82.5,86,90,86,120,132.5,140,,140,386
1,Anitta Riedl,Ger,F,SBD,Multi-ply,50,101.6,M50-54,90+,65,80,90,,90,70,75,80,-85,80,90,100,105,,105,275
1,Andrea Pauli,Ger,F,SBD,Multi-ply,37,66.5,S,67.5,-140,140,-150,,140,77.5,83,87.5,,87.5,92.5,130,141,150,141,368.5
1,Tomáš Jurcak,Svk,M,SBD,Multi-ply,18,90,T18-19,90,200,215,225,,225,130,140,-150,,140,185,200,210,,210,575
1,Lion Lowag,Ger,M,SBD,Multi-ply,19,98.8,T18-19,100,240,255,-265,,255,135,-142.5,-142.5,,135,-225,225,-240,,225,615
1,Peter Lincmaier,Svk,M,SBD,Multi-ply,34,99.7,Open,100,320,-355,355,,355,207.5,220,-230,,220,300,-331,,,300,875
2,Milan Mašek,Cze,M,SBD,Multi-ply,25,98,Open,100,290,310,-320,,310,150,160,,,160,210,240,-260,,240,710
3,Erik Knöfler,Ger,M,SBD,Multi-ply,36,99.8,Open,100,200,-330,-350,,200,240,252.5,260,-275.5,260,200,,,,200,660
1,Igor Golecký,Svk,M,SBD,Multi-ply,24,101.1,Open,110,-300,-300,300,,300,205,-215,-215,,205,260,280,-295,,280,785
1,Václav Češka,Cze,M,SBD,Multi-ply,32,156.7,Open,140+,475,-505,-505,,475,340,355,362.5,,362.5,340,-362.5,362.5,,362.5,1200
1,Dauer Engelbert,Aut,M,SBD,Multi-ply,39,98,Submaster,100,275,290,300,,300,160,170,180,,180,-280,280,295,301,295,775
1,Marcel Mette,Ger,M,SBD,Multi-ply,41,60,M40-44,60,215,225,232.5,,232.5,100,107.5,110,,110,200,210.5,-218.5,,210.5,553
1,Viktor Horák,Cze,M,SBD,Multi-ply,40,89.8,M40-44,90,300,-320,320,,320,150,180,,,180,230,250,-260,,250,750
1,Markus Zehethofer,Aut,M,SBD,Multi-ply,42,138.8,M40-44,140,360,-391,-391,,360,260,281,290,,290,310,330,-349,,330,980
1,Helmut Kraus,Ger,M,SBD,Multi-ply,46,98.4,M45-49,100,300,-315,-315,,300,215,225,235,,235,242.5,-260,-260,,242.5,777.5
2,Torsten Kammer,Ger,M,SBD,Multi-ply,48,97.5,M45-49,100,-230,230,252.5,,252.5,-157.5,165,-172.5,,165,205,215,225,,225,642.5
1,Pete Andrich,Usa,M,SBD,Multi-ply,46,119.7,M45-49,125,250,260,270,,270,175,180,185,,185,240,-250,,,240,695
1,Mark Calvert,Usa,M,SBD,Multi-ply,50,85.8,M50-54,90,172.5,182.5,192.5,,192.5,112.5,122.5,-132.5,,122.5,192.5,205,,,205,520
1,Pavel Malina,Cze,M,SBD,Multi-ply,57,59.6,M55-59,60,180,-195,195,,195,100,-107.5,107.5,,107.5,160,175,-180,,175,477.5
1,Karol Brečka,Cze,M,SBD,Multi-ply,56,74.9,M55-59,75,180,195,-200,,195,110,-125,-125,,110,180,-200,,,180,485
1,Erwin Loritsch,Aut,M,SBD,Multi-ply,56,86.4,M55-59,90,-170,170,180,,180,-110,-110,110,,110,200,-215,,,200,490
1,Lothar Pritzl,Ger,M,SBD,Multi-ply,58,92.3,M55-59,100,215,230,-240,,230,125,135,140,,140,180,190,200,,200,570
2,Jiří Barnet,Cze,M,SBD,Multi-ply,57,99.4,M55-59,100,200,220,-235,,220,130,-140,-140,,130,180,-190,,,180,530
1,Stefan Sochański,Pol,M,SBD,Multi-ply,68,89.5,M65-69,90,200,220,230,,230,110,120,,,120,215,235,,,235,585
1,Heinz Stroj,Aut,M,SBD,Multi-ply,66,95,M65-69,100,-150,150,170,,170,107.5,115,122.5,,122.5,180,200,,,200,492.5
1,Julie Krastenicsová,Cze,F,SBD,Wraps,17,51.9,T16-17,52,-75,75,-80,,75,47.5,52.5,55,,55,56,80,85,,85,215
1,Liliana Chorvátová,Svk,F,SBD,Wraps,17,56,T16-17,56,-80,80,85,91,85,35,-40,40,-42.5,40,80,90,95,,95,220
1,Karolína Děrglová,Cze,F,SBD,Wraps,19,67.4,T18-19,67.5,135,-150,150,,150,65,75,-80,,75,120,140,150,,150,375
2,Veronika Sekeráková,Cze,F,SBD,Wraps,18,64.5,T18-19,67.5,-80,82.5,87.5,,87.5,50,55,57.5,,57.5,95,105,-112.5,,105,250
1,Bianka Kováčiková,Svk,F,SBD,Wraps,21,57.6,Junior,60,125,-135,-135,,125,40,42.5,-45,,42.5,115,125,138,,138,305.5
2,Felicita Susa,Hun,F,SBD,Wraps,23,59.5,Junior,60,115,125.5,-130,-130,125.5,52.5,57.5,60,,60,105,115,120,,120,305.5
1,Dominika Kmeťová,Svk,F,SBD,Wraps,21,68.7,Junior,75,120,130,140,145,140,70,75,-80,,75,140,-150,152.5,157.5,152.5,367.5
1,Mónika Bazsó,Hun,F,SBD,Wraps,43,67.3,M40-44,67.5,142.5,147.5,152.5,,152.5,82.5,90,95,,95,170,180,186,190,186,433.5
1,Marcela Zazvonilová,Cze,F,SBD,Wraps,46,59.1,M45-49,60,105,115,120,,120,57.5,65,-70,-70,65,130,-145,145,150,145,330
1,Mariša Golob,Slo,F,SBD,Wraps,27,51.7,Open,52,150,160,-165,,160,85,91,92.5,,92.5,160,-167.5,-167.5,,160,412.5
1,Petra Kočková,Cze,F,SBD,Wraps,34,74.9,Open,75,-120,120,140,,140,80,-85,85,,85,160,-170,-170,,160,385
2,Denisa Madejová,Cze,F,SBD,Wraps,27,73,Open,75,125,135,,,135,-85,85,87.5,,87.5,155,160,-162.5,,160,382.5
1,Nadja Otter,Ger,F,SBD,Wraps,34,81.9,Open,82.5,195,212.5,220,,220,135,142.5,147.5,,147.5,225,245,-250,,245,612.5
1,Larissa Küng,Sui,F,SBD,Wraps,28,89.4,Open,90,150,170,185,,185,90,100,-107.5,,100,170,190,202.5,,202.5,487.5
1,Roman Dokulil,Cze,M,SBD,Wraps,17,88.5,T16-17,90,-170,170,185,,185,120,135,142.5,,142.5,220,240,-250,,240,567.5
2,Marek Novotný,Cze,M,SBD,Wraps,17,85.5,T16-17,90,180,190,-200,,190,100,-110,110,,110,200,220,-250,,220,520
1,Eric Kruse,Ger,M,SBD,Wraps,16,98.3,T16-17,100,210,-230,230,,230,115,125,-137.5,,125,230,250,-255,,250,605
1,Dominik Fullajtár,Svk,M,SBD,Wraps,18,71.9,T18-19,75,160,170,180,,180,80,90,100,,100,160,180,200,,200,480
2,Máté Schweitzer,Hun,M,SBD,Wraps,18,72.4,T18-19,75,115,125,135,,135,70,80,-85,,80,145,155,-160,,155,370
1,Ondřej Mališka,Cze,M,SBD,Wraps,19,80,T18-19,82.5,195,205,-210,,205,130,135,140,142.5,140,220,-230,230,,230,575
2,Adrián Untermayer,Svk,M,SBD,Wraps,18,79.4,T18-19,82.5,130,145,155,,155,95,105,110,,110,200,215,-225,,215,480
1,Dominik Kovalčík,Cze,M,SBD,Wraps,18,89.1,T18-19,90,-245,-265,265,,265,150,160,171,,171,230,237.5,242.5,,242.5,678.5
2,Ondřej Schejbal,Cze,M,SBD,Wraps,18,88.7,T18-19,90,210,-230,-230,,210,110,120,-125,,120,225,235,240,,240,570
3,Kristóf Bakonyvári,Hun,M,SBD,Wraps,18,87,T18-19,90,90,-100,100,,100,95,100,102.5,,102.5,115,125,140,,140,342.5
1,Tom Weltzer,Ger,M,SBD,Wraps,19,97.2,T18-19,100,230,-235,-235,,230,125,130,135,,135,235,245,250,,250,615
1,Jiří Hansík,Cze,M,SBD,Wraps,23,66.8,Junior,67.5,170,183,-188,,183,95,102.5,107.5,,107.5,185,200.5,205,-207.5,205,495.5
2,Gabriel Bari,Svk,M,SBD,Wraps,23,66.6,Junior,67.5,140,150,-160,,150,110,115,120,,120,180,191,-205,,191,461
1,Antonín Prokeš,Cze,M,SBD,Wraps,20,71.6,Junior,75,-200,200,212.5,,212.5,105,115,-117.5,,115,-220,220,-240,,220,547.5
2,František Šuška,Svk,M,SBD,Wraps,22,75,Junior,75,190,205,-212.5,,205,125,130,-135,,130,180,200,-210,,200,535
3,David Brůžek,Cze,M,SBD,Wraps,20,73.3,Junior,75,175,-195,-195,,175,105,115,-117.5,,115,180,195,-210,,195,485
4,Dalton Starkey,Usa,M,SBD,Wraps,23,73.5,Junior,75,135,155,-175,,155,95,100,-107.5,,100,185,210,-225,,210,465
5,Vojtěch Tobola,Cze,M,SBD,Wraps,23,74.6,Junior,75,150,160,-170,,160,115,120,125,,125,120,-170,,,120,405
1,Tine Mulej,Slo,M,SBD,Wraps,22,81.7,Junior,82.5,-240,240,255,,255,145,,,,145,270,-285,-285,,270,670
2,Alexander Wartig,Ger,M,SBD,Wraps,21,77.4,Junior,82.5,-200,200,-205,,200,130,137.5,,,137.5,210,220,-230,,220,557.5
1,Balázs Hajdú,Hun,M,SBD,Wraps,20,88.3,Junior,90,-240,250,-265,,250,160,180,185,,185,250,280,-300.5,,280,715
2,Antonín Tenkáč,Cze,M,SBD,Wraps,20,88.7,Junior,90,255,-275,-275,,255,140,152.5,162.5,,162.5,240,257.5,265,,265,682.5
3,Kevin Hesse,Ger,M,SBD,Wraps,20,89.3,Junior,90,-250,250,-265,,250,130,140,147.5,,147.5,245,260,-265,,260,657.5
4,Peter Bihari,Svk,M,SBD,Wraps,22,85.9,Junior,90,-190,-190,190,,190,125,135,140,,140,200,210,220,,220,550
5,Rafał Bryła,Pol,M,SBD,Wraps,23,86.9,Junior,90,170,-175,-177.5,,170,130,137.5,140,,140,190,200,205,,205,515
DQ,Martin Dvořáček,Cze,M,SBD,Wraps,20,89.4,Junior,90,-285,-285,-300,,,,,,,,,,,,,
DQ,Marcel Kleuß,Ger,M,SBD,Wraps,21,89,Junior,90,-220,-220,-220,,,,,,,,,,,,,
1,Alexandr Globa,Cze,M,SBD,Wraps,23,98.8,Junior,100,-250,250,262.5,,262.5,150,160,162.5,,162.5,250,275,-285,,275,700
2,Jan Ondrák,Cze,M,SBD,Wraps,23,99.4,Junior,100,-240,-240,240,,240,160,-170,170,,170,270,280,-285,,280,690
3,Richárd Németh,Hun,M,SBD,Wraps,23,99.5,Junior,100,220,230,242.5,,242.5,175,-180,-180,,175,265,270,-280,,270,687.5
4,Tomáš Kunc,Cze,M,SBD,Wraps,22,100,Junior,100,-240,250,260,,260,130,-135,135,,135,260,270,-280,,270,665
5,Zdeněk Marvan,Cze,M,SBD,Wraps,20,97.9,Junior,100,235,250,260,,260,150,160,-165,,160,220,235,-250,,235,655
6,Miklós Kerepesi-Kovács,Hun,M,SBD,Wraps,20,97.2,Junior,100,190,202.5,210,,210,115,125,-130,,125,240,250,260,,260,595
1,János Rajmund Nagy,Hun,M,SBD,Wraps,23,110,Junior,110,300,315,325,,325,185,195,200.5,,200.5,340,355,-362.5,,355,880.5
2,Wladimir Litvinenko,Ger,M,SBD,Wraps,21,103.2,Junior,110,-250,250,270,,270,155,162.5,165,,165,270,290,-300,,290,725
3,Ádám Adorján,Hun,M,SBD,Wraps,22,107.5,Junior,110,260,270,280,,280,135,145,,,145,285,295,-302.5,,295,720
4,Jakub Vávra,Cze,M,SBD,Wraps,23,101.6,Junior,110,-205,205,225,,225,145,155,-165,,155,220,235,-250,,235,615
1,Patrik Somorovský,Svk,M,SBD,Wraps,22,119.8,Junior,125,280,305,-315,,305,170,180,190,,190,290,305.5,309,,309,804
2,Bálint Farkas,Svk,M,SBD,Wraps,22,118.6,Junior,125,280,290,-300,,290,165,175,-185,,175,285,295,-306,,295,760
1,Erni Gregorčič,Slo,M,SBD,Wraps,41,73.9,M40-44,75,190,202.5,-212.5,,202.5,140,145,-151,,145,225,240,250,-256,250,597.5
1,Tomáš Šesták,Cze,M,SBD,Wraps,44,78,M40-44,82.5,185,197.5,205,,205,107.5,115,-120,,115,220,235,245,-252.5,245,565
1,Mihály Bakó,Hun,M,SBD,Wraps,43,88.9,M40-44,90,180,205,,,205,125,135,-142.5,,135,210,220,230,,230,570
1,Petr Maceášik,Cze,M,SBD,Wraps,42,97.4,M40-44,100,230,240,250,,250,200,210,,,210,260,280,-300,,280,740
2,Martin Horák,Cze,M,SBD,Wraps,40,97.8,M40-44,100,215,220,225,,225,155,-165,165,,165,225,235,-242.5,,235,625
1,Petr Hron,Cze,M,SBD,Wraps,40,107.9,M40-44,110,-240,240,250,,250,170,185,-190,,185,250,270,-280,,270,705
2,Michael Lauenstein,Ger,M,SBD,Wraps,41,107.3,M40-44,110,215,225,-230,,225,185,195,-200,,195,260,270,-281,281,270,690
1,Ronny Schmidt,Ger,M,SBD,Wraps,42,110.1,M40-44,125,180,200,-210,,200,140,150,-155,,150,200,-220,220,,220,570
2,Ľubomír Majstrák,Svk,M,SBD,Wraps,43,115.4,M40-44,125,120,130,140,,140,80,90,100,,100,120,130,140,,140,380
1,Miloš Šnajdr,Svk,M,SBD,Wraps,40,136.2,M40-44,140,280,300,-315,,300,210,220,230,,230,320,340,,,340,870
2,Tibor Karalyos,Hun,M,SBD,Wraps,43,131.5,M40-44,140,280,,,,280,140,150,,,150,280,,,,280,710
3,Radek Rosa,Cze,M,SBD,Wraps,43,132.1,M40-44,140,-250,250,260,,260,150,-160,160,,160,260,275,-291,,275,695
1,László Kiss,Hun,M,SBD,Wraps,48,98.9,M45-49,100,260,283,,,283,150,-160,-160,,150,260,283,,,283,716
2,Marian Hudec,Svk,M,SBD,Wraps,47,97.8,M45-49,100,180,200,-210,,200,150,160,165,,165,210,230,-240,,230,595
1,Urs Auf-Der-Maur,Sui,M,SBD,Wraps,49,106.8,M45-49,110,-270,270,285,,285,160,170,180,,180,300,322.5,,,322.5,787.5
2,Tibor Pukáč,Svk,M,SBD,Wraps,46,107,M45-49,110,250,265,-270,,265,160,165,167.5,,167.5,235,242.5,245,,245,677.5
1,Václav Mareš,Cze,M,SBD,Wraps,49,120.7,M45-49,125,-255,255,,,255,185,205,220,-225,220,-270,270,300,,300,775
2,Rafał Klauz,Pol,M,SBD,Wraps,46,112.3,M45-49,125,200,215,-230,,215,150,160,-170,,160,230,250,-260,,250,625
1,Denis Udovič,Slo,M,SBD,Wraps,47,125.5,M45-49,140,260,-280,-300,,260,180,200,-220,,200,280,300,320,,320,780
1,Tomáš Sedláček,Cze,M,SBD,Wraps,52,98.9,M50-54,100,230,245,,,245,145,155,,,155,230,250,-260,,250,650
1,Bernd Backhaus,Ger,M,SBD,Wraps,52,107.4,M50-54,110,250,270,-280.5,,270,-155.5,160,-163,,160,250,-270,-270,,250,680
1,Tibor Varga,Hun,M,SBD,Wraps,52,115.7,M50-54,125,-140,140,150,,150,150,165,-170.5,,165,180,210.5,,,210.5,525.5
1,Sejfo Šehović,Bih,M,SBD,Wraps,58,72.2,M55-59,75,160,-170,-175,,160,100,105,,,105,210,220,-230,,220,485
2,David Overholt,Usa,M,SBD,Wraps,57,71.7,M55-59,75,112.5,120,-130,,120,65,-70,-70,,65,150,160,-172.5,,160,345
DQ,Bozat Hakki,Tur,M,SBD,Wraps,56,71.1,M55-59,75,130,-135,-140,,130,100,105,-110,,105,-180,-185,-185,,,
1,Detlef Riedel,Ger,M,SBD,Wraps,57,81.9,M55-59,82.5,210,225,232.5,,232.5,125,132.5,137.5,,137.5,200,212.5,217.5,,217.5,587.5
2,Gottfried Foltas,Ger,M,SBD,Wraps,59,81.9,M55-59,82.5,135,145,155,,155,80,90,95,,95,175,-200,,,175,425
1,Jozef Gabrhel,Svk,M,SBD,Wraps,61,72.8,M60-64,75,115,125,135,,135,95,101,,,101,140,,,,140,376
1,Stefan Sochański,Pol,M,SBD,Wraps,68,89.5,M65-69,90,160,-175,180,,180,90,95,,,95,185,205,-220,,205,480
1,František Esser,Cze,M,SBD,Wraps,71,82.3,M70-74,82.5,60,80,100,,100,80,100,-110,,100,160,170.5,,,170.5,370.5
1,Ulrich Mielich,Ger,M,SBD,Wraps,77,76.9,M75-79,82.5,65,72.5,-77.5,,72.5,55,60,62.5,,62.5,95,110,117.5,,117.5,252.5
1,Martin Rotar,Slo,M,SBD,Wraps,25,66.8,Open,67.5,-180,180,190,200,190,115,120,125,-130.5,125,195,202.5,210,-215,210,525
2,Daniel Krause,Ger,M,SBD,Wraps,24,65.2,Open,67.5,140,150,-155,,150,100,107.5,-112.5,,107.5,200,212.5,-215,,212.5,470
1,Adrian Wierzbicki,Pol,M,SBD,Wraps,24,71.5,Open,75,140,155,170,,170,105,112.5,117.5,,117.5,190,-205,205,,205,492.5
2,Vladimír Stránský,Cze,M,SBD,Wraps,26,74.8,Open,75,-160,-165,165,,165,100,107.5,112.5,,112.5,-170,180,-200,,180,457.5
3,Matjaž Drolc,Slo,M,SBD,Wraps,25,73.8,Open,75,115,120,125,,125,90,95,-100,,95,120,130,-140,,130,350
1,Simon Stopar,Slo,M,SBD,Wraps,33,82.4,Open,82.5,270,283,-290,,283,145,150,155,,155,265,275,-285,-285,275,713
2,Marcin Helwig,Pol,M,SBD,Wraps,30,81.6,Open,82.5,225,-232.5,232.5,,232.5,155,162.5,167.5,,167.5,245,257.5,265,,265,665
3,Marek Kéri,Svk,M,SBD,Wraps,24,80.2,Open,82.5,190,200,207.5,,207.5,120,125,-130,,125,225,237.5,242.5,,242.5,575
4,Michal Florian,Cze,M,SBD,Wraps,32,81.5,Open,82.5,180,190,-202.5,,190,130,-135,-135,,130,210,220,-225,,220,540
5,Viliam Buzinkay,Cze,M,SBD,Wraps,31,82.3,Open,82.5,180,-210,-210,,180,140,150,160,,160,180,-195,,,180,520
6,Péter Csoma,Hun,M,SBD,Wraps,24,79.2,Open,82.5,-160,170,-180,,170,82.5,90,95,,95,170,182.5,-190,,182.5,447.5
1,Marvin Engel,Ger,M,SBD,Wraps,25,88.9,Open,90,-250,250,-260,,250,170,180,-185,,180,300,-305,-305,,300,730
2,Peter Klimo,Svk,M,SBD,Wraps,31,89.7,Open,90,270,-286,286,,286,140,150,-155,,150,230,250,265,,265,701
3,Pavel Kraus,Cze,M,SBD,Wraps,28,89.2,Open,90,190,205,-220,,205,140,-150,150,,150,225,245,-255,,245,600
DQ,Dániel Hanol,Hun,M,SBD,Wraps,24,88,Open,90,-175,-175,-175,,,,,,,,,,,,,
1,Róbert Tumpek,Hun,M,SBD,Wraps,24,97.2,Open,100,285,295,305,,305,155,165,170,,170,280,300,305,,305,780
2,Szabolcs Balázs,Hun,M,SBD,Wraps,29,99.8,Open,100,265,280,290,,290,155,165,170,,170,300,317.5,-322.5,,317.5,777.5
3,Andrzej Mitera,Pol,M,SBD,Wraps,29,99.4,Open,100,260,285,-295,,285,170,180,190,,190,260,-285,285,,285,760
4,Bohumil Elsnic,Cze,M,SBD,Wraps,30,99.8,Open,100,220,-230,230,,230,155,165,170,,170,250,-265,265,,265,665
5,Christian Thiede,Ger,M,SBD,Wraps,34,99,Open,100,-220,220,-235,,220,155,165,-172.5,,165,200,220,,,220,605
1,Petr Folprecht,Cze,M,SBD,Wraps,31,108.1,Open,110,315,330,-340.5,,330,165,175,180,,180,310,330,-340,,330,840
2,Patrik Navara,Cze,M,SBD,Wraps,26,109.8,Open,110,265,280,290,,290,195,205,-210,,205,290,305,307.5,,307.5,802.5
3,Sebastian Pawlik,Pol,M,SBD,Wraps,25,107.3,Open,110,300,-310,-310,,300,200,210,-215,,210,280,290,-295,,290,800
4,Lukáš Matušinec,Cze,M,SBD,Wraps,24,109,Open,110,285,300,312.5,,312.5,160,170,-175,,170,290,300,310,,310,792.5
5,Łukasz Lipka,Pol,M,SBD,Wraps,25,108.5,Open,110,280,-300,305,,305,170,-175,-175,,170,290,310,-315,,310,785
6,Jan Fleckenstein,Ger,M,SBD,Wraps,25,106.1,Open,110,-240,240,260,,260,195,202.5,207.5,,207.5,260,275,-280,,275,742.5
7,Andreas Grillmeier,Ger,M,SBD,Wraps,29,104.1,Open,110,240,250,-260,,250,170,175,177.5,,177.5,260,270,-280,,270,697.5
1,Tasic Nemanja,Aut,M,SBD,Wraps,27,122.2,Open,125,320,335,-345,,335,210,222.5,-227.5,,222.5,305,315,-322.5,,315,872.5
2,Radovan Ondričko,Svk,M,SBD,Wraps,27,121.4,Open,125,330,350,-360,,350,185,195,-200,,195,280,300,-310,,300,845
3,Rafał Wójcik,Pol,M,SBD,Wraps,30,111.2,Open,125,240,255,275,,275,165,172.5,-180,,172.5,290,300,-310,,300,747.5
4,Michel Jähnel,Ger,M,SBD,Wraps,25,121.3,Open,125,205,217.5,230,,230,145,152.5,157.5,,157.5,235,250,-255,,250,637.5
5,Damian Sieradzki,Pol,M,SBD,Wraps,27,115.7,Open,125,210,-230,-230,,210,160,-165,165,,165,240,260,-265,,260,635
1,Giorgi Gogolidze,Geo,M,SBD,Wraps,29,140,Open,140,-360,-360,380,,380,200,207.5,212.5,,212.5,335,345,-352.5,,345,937.5
2,Nihad Opalic,Aut,M,SBD,Wraps,32,140,Open,140,-310,315,-340,,315,185,-200,205,,205,320,335,342.5,,342.5,862.5
DQ,Roland Hegedüs,Svk,M,SBD,Wraps,30,135.1,Open,140,-290,-290,-290,,,,,,,,,,,,,
DQ,Jaroslav Zelený,Cze,M,SBD,Wraps,31,126.9,Open,140,-385,-400,,,,,,,,,,,,,,
1,Ján Barkoczi,Svk,M,SBD,Wraps,25,146.7,Open,140+,200,230,240,,240,130,140,150,,150,200,220,240,,240,630
1,Pavel Balážik,Svk,M,SBD,Wraps,38,54.9,Submaster,56,105,-115,115,,115,75,80,85.5,-87.5,85.5,125,135,145,-155.5,145,345.5
1,Michal Buranský,Svk,M,SBD,Wraps,37,75.5,Submaster,82.5,150,-165,165,,165,115,-120,120,,120,-210,210,220,-230.5,220,505
2,Aleks Piciga,Slo,M,SBD,Wraps,35,75.4,Submaster,82.5,100,130,,,130,100,105,-110,,105,100,135,170,,170,405
4,Juraj Barnet,Svk,M,SBD,Wraps,36,86.8,Submaster,90,200,-215,-220,,200,150,160,-167.5,,160,200,215,225,,225,585
1,Austin Hickey,Irl,M,SBD,Wraps,37,99.3,Submaster,100,250,275,,,275,175,180,185,,185,250,270,,,270,730
1,Lars Stöwesandt,Ger,M,SBD,Wraps,38,103.5,Submaster,110,240,-250,250,,250,192.5,197.5,202.5,,202.5,290,295,-300,,295,747.5
1,Marek Lipták,Svk,M,SBD,Wraps,38,122.6,Submaster,125,260,280,300,,300,215,225,-232.5,,225,315,-325,,,315,840
2,Michael Becherer,Ger,M,SBD,Wraps,39,123.1,Submaster,125,240,255,265,,265,150,165,-175,,165,230,240,250,,250,680
3,Przemysław Karwański,Pol,M,SBD,Wraps,37,113.9,Submaster,125,210,-230,-230,,210,150,-157.5,-157.5,,150,240,260,-270,,260,620
1,Heiko Götz,Ger,M,SBD,Wraps,38,125.2,Submaster,140,260,-288,288,,288,200,220,-225,,220,230,260,,,260,768
2,René Fiedler,Ger,M,SBD,Wraps,35,133,Submaster,140,230,240,-250,,240,140,150,-160,,150,220,230,245,,245,635
1,Jaroslav Švejda,Cze,M,SBD,Wraps,38,143.6,Submaster,140+,270,290,300,,300,180,-190,190,-200,190,280,300,310,,310,800
2,Stefan Schmidt,Ger,M,SBD,Wraps,36,147.9,Submaster,140+,255,-282.5,-282.5,,255,140,152.5,-162.5,,152.5,215,-245,250,,250,657.5
